[8.186727089469262, 8.297396549438272]
[3.1218279288436723, 5.170419455126261]
[0.36243432310049595, 3.7825031724667055]
[0.2927565652532252, 3.444610291963923]
[0.260649030777068, 3.2171298089619063]
[0.2441982075799035, 3.069222958486518]
[0.23009042461677903, 2.947292925853132]
[0.21988273629782476, 2.8731808923674023]
[0.21228980457041122, 2.8023569126318457]
[0.20586356690110727, 2.725859980936093]
[0.19795752224816515, 2.6834589950150303]
[0.19669746781649342, 2.6384364328313765]
[0.19484574787741216, 2.593635161412518]
[0.19099486641275165, 2.5486187851008504]
[0.18839639649225637, 2.515900939403212]
[0.18624804511203968, 2.486993699886094]
[0.18434909981192305, 2.4649565464135756]
[0.18332325414891437, 2.440374090984124]
[0.18135697153560085, 2.4234286851101006]
[0.1801489279897139, 2.4133211006474444]
[0.17912371689969125, 2.391419297865121]
[0.1782857879941565, 2.3589882387412406]
[0.17655581504657333, 2.3477871641628627]
[0.17189130036449587, 2.3386485096612146]
[0.16800347025461315, 2.3315827341892263]
[0.165545637728004, 2.3105403655175514]
[0.15764942566717705, 2.297506472172893]
[0.10439985488629162, 2.2959380667573215]
[0.09079667783490951, 2.2894336557284314]
[0.08985547313255333, 2.276154843610506]
[0.08813806310915687, 2.2604024545562242]
[0.0888478632952147, 2.251240990339558]
[0.08657209835312801, 2.2501854598905693]
[0.08647014224368013, 2.232993669607128]
[0.0864928324200075, 2.2363878397485712]
[0.087515880258503, 2.2317374704890427]
[0.0849543763319798, 2.2206294512514972]
[0.08607055208798693, 2.215443035802835]
[0.08441028005416706, 2.2045904314397387]
[0.08591760461665751, 2.1928172338715552]
[0.08417196896183518, 2.1897536353669533]
[0.08449955430267622, 2.186475226747805]
[0.08387594073909875, 2.164922099184084]
[0.0819737491213367, 2.1753513902658606]
[0.08256664048346045, 2.166946445741566]
[0.08325663148206468, 2.163194494244123]
[0.08250976499315361, 2.159513972988992]
[0.08376095527239164, 2.152211643291945]
[0.08180047914271099, 2.1477759352099857]
[0.08166780262687831, 2.1518520495827698]
[0.08250796926855136, 2.1479657211609005]
[0.08228940483185611, 2.1306611192015916]
[0.08143811248201391, 2.127812670649254]
[0.08128628955149392, 2.1320187323613062]
[0.08099060543379513, 2.126854422186725]
[0.08188214957602213, 2.121027713609074]
[0.08034360777076636, 2.11661796286861]
[0.08059547202039301, 2.1036679021231492]
[0.08057857026414572, 2.1060869220350686]
[0.0803771863030813, 2.1062737732740286]
[0.080262335665398, 2.111006381541513]
[0.08007581701938642, 2.0970939344309447]
[0.07891284148416244, 2.1088764335088173]
[0.0792600535066178, 2.0938380115115005]
[0.07844703521316897, 2.0899304483917303]
[0.07953518067779485, 2.0820008632264906]
[0.07933799917192329, 2.0801072351784837]
[0.0789573595749248, 2.0792082154771205]
[0.07929922172768529, 2.0911478898435827]
[0.0788906881570542, 2.068857472311646]
[0.0800983901722688, 2.073230799190449]
[0.07879544973831916, 2.0690527906004745]
[0.07906297104662977, 2.063455080018134]
[0.07871901962175429, 2.0635953177673354]
[0.07833908149361854, 2.0612540085601747]
[0.07790539978136286, 2.0689882977943306]
[0.07890581999147134, 2.0612102943539434]
[0.07677898502211326, 2.0514852147852447]
[0.0772698073305576, 2.06193191773456]
[0.07743455172072128, 2.0527698646492962]
[0.07749534438999885, 2.0520079075534348]
[0.07747604383586071, 2.045322658830954]
[0.07822392648963887, 2.044534370503314]
[0.07720306452376355, 2.040782284859403]
[0.07627201577315287, 2.039216357025899]
[0.07807208516772415, 2.0426115810770273]
[0.07681186188133605, 2.0314850276131637]
[0.07702165642821371, 2.0335299260974242]
[0.07767227092938578, 2.0224486663284575]
[0.07744627137634962, 2.023301791771507]
[0.07476678179414513, 2.0320933385044326]
[0.07553847682179646, 2.0258252347335155]
[0.07683160023880978, 2.0297958941603045]
[0.07467435007315314, 2.0116504342804316]
[0.07541574442882797, 2.029018596899916]
[0.07574901463469547, 2.0177430693121527]
[0.0753296298025848, 2.009406066878047]
[0.07564039283241436, 2.0156730524177684]
[0.0755052667999322, 2.0064952594802983]
[0.07582127735365596, 1.996972807463089]
[0.07530730649212403, 2.0100028710980777]
[0.07640559850856864, 2.0088074427376053]
[0.07483875779652882, 2.0005029986831]
[0.0756310608817959, 2.0000165123905003]
[0.07475070091109041, 2.001489320905625]
[0.07490200810326168, 2.0046514960820834]
[0.07354946098812272, 2.0045014315881766]
[0.07350048948723314, 2.004481065746627]
[0.07448551947511493, 2.00316006115794]
[0.0752279437703923, 1.9910829785008488]
[0.07450241185293328, 1.9891852325002501]
[0.07564020896683724, 1.998814101190438]
[0.07351395523972004, 1.995498116081903]
[0.0738554591149976, 1.996164375151519]
[0.07452861576380476, 1.9860152293614552]
[0.07527194606368687, 1.992542958142115]
[0.07282109130855434, 1.9872396371425631]
[0.07435534229178145, 1.987929002425288]
[0.0730251368892469, 1.967012545347997]
[0.07466783356989506, 1.9833207383023086]
[0.07247988308757701, 1.9911962400833318]
