[0.0023148148148148147, 0.0023148148148148147]
[0.09963425925925926, 0.10069907407407408]
[0.06285185185185187, 0.07311111111111111]
[0.054379629629629625, 0.07002777777777777]
[0.053125, 0.06717592592592593]
[0.052912037037037035, 0.06580092592592593]
[0.052634259259259256, 0.06397222222222222]
[0.052995370370370366, 0.063875]
[0.05238425925925926, 0.06215740740740741]
[0.05268981481481481, 0.06348611111111112]
[0.050416666666666665, 0.06141666666666667]
[0.05125462962962963, 0.060875]
[0.05109259259259259, 0.05978703703703704]
[0.05160185185185185, 0.061578703703703705]
[0.05081944444444445, 0.060055555555555556]
[0.05109722222222223, 0.059254629629629636]
[0.05132870370370371, 0.05975]
[0.050995370370370365, 0.0596574074074074]
[0.05096759259259259, 0.05952777777777778]
[0.049638888888888885, 0.05790740740740741]
[0.05170833333333333, 0.05935185185185185]
[0.05161111111111111, 0.06013425925925927]
[0.050125, 0.059736111111111115]
[0.051925925925925924, 0.05938888888888889]
[0.050958333333333335, 0.05843518518518519]
[0.04968981481481481, 0.058898148148148144]
[0.04995370370370371, 0.057601851851851855]
[0.05027314814814814, 0.05879166666666667]
[0.05079166666666667, 0.05910648148148148]
[0.05103703703703704, 0.05834722222222223]
[0.05214351851851851, 0.06016666666666667]
[0.052106481481481476, 0.06001388888888889]
[0.05056018518518519, 0.058513888888888886]
[0.04947222222222222, 0.05723148148148148]
[0.051583333333333335, 0.05934259259259259]
[0.05237037037037037, 0.059814814814814814]
[0.05109259259259259, 0.059444444444444446]
[0.05071296296296296, 0.058486111111111114]
[0.050708333333333334, 0.05910648148148148]
[0.05090740740740741, 0.0575925925925926]
[0.05037037037037037, 0.058259259259259254]
[0.051180555555555556, 0.05881481481481481]
[0.049879629629629635, 0.05726851851851852]
[0.05174074074074073, 0.05941666666666667]
[0.05024074074074073, 0.05823611111111111]
[0.04952314814814814, 0.05725925925925927]
[0.049935185185185194, 0.05692129629629629]
[0.050638888888888886, 0.05785648148148148]
[0.049458333333333326, 0.05808796296296296]
[0.05196759259259259, 0.060731481481481484]
[0.05016666666666667, 0.05735648148148148]
[0.04988425925925925, 0.057379629629629635]
[0.04934722222222222, 0.05649074074074073]
[0.050935185185185174, 0.05896296296296296]
[0.05093981481481482, 0.05780555555555555]
[0.05109259259259259, 0.05883333333333333]
[0.05041666666666667, 0.05704629629629629]
[0.05022222222222223, 0.05793981481481481]
[0.05088888888888889, 0.057277777777777775]
[0.05100925925925926, 0.057125]
[0.05048148148148148, 0.058138888888888886]
[0.05082407407407408, 0.05842592592592592]
[0.050074074074074076, 0.057407407407407414]
[0.05027777777777778, 0.057388888888888885]
[0.051208333333333335, 0.0589074074074074]
[0.051513888888888894, 0.0596574074074074]
[0.05156018518518518, 0.058388888888888886]
[0.05068518518518519, 0.057976851851851856]
[0.05175925925925926, 0.059055555555555556]
[0.049074074074074076, 0.05679166666666667]
[0.05112037037037037, 0.05877314814814815]
[0.05129166666666667, 0.058847222222222224]
[0.05058333333333333, 0.05875]
[0.04955092592592592, 0.05777314814814814]
[0.05098148148148148, 0.05835648148148148]
[0.04937037037037037, 0.057013888888888885]
[0.05022222222222223, 0.058305555555555555]
[0.04928240740740741, 0.05821296296296296]
[0.05014814814814815, 0.05808796296296297]
[0.05122222222222223, 0.05843518518518519]
[0.05232407407407408, 0.05931018518518519]
[0.050254629629629635, 0.057708333333333334]
[0.05023611111111111, 0.05636111111111111]
[0.05010648148148148, 0.05715740740740741]
[0.050930555555555555, 0.05814351851851852]
[0.04990740740740741, 0.05766203703703704]
[0.049375, 0.05673148148148148]
[0.049680555555555554, 0.057851851851851856]
[0.0514537037037037, 0.05877314814814815]
[0.051083333333333335, 0.05854166666666667]
[0.05147685185185185, 0.05818981481481481]
[0.04995833333333333, 0.057]
[0.04996759259259259, 0.05728703703703704]
[0.05010648148148148, 0.05663425925925926]
[0.050666666666666665, 0.05773148148148148]
[0.05062500000000001, 0.057736111111111106]
[0.049430555555555554, 0.05691666666666667]
[0.04966666666666667, 0.05722222222222223]
[0.05117592592592592, 0.05866203703703704]
[0.05099537037037037, 0.05840740740740741]
[0.05025, 0.05761574074074074]
[0.05023148148148148, 0.05731481481481481]
[0.050245370370370364, 0.0582962962962963]
[0.04960648148148149, 0.05711574074074074]
[0.051629629629629636, 0.058388888888888886]
[0.050152777777777775, 0.05706018518518519]
[0.05146296296296296, 0.058819444444444445]
[0.05117592592592592, 0.05799537037037037]
[0.051708333333333335, 0.059009259259259254]
[0.04919444444444444, 0.05603240740740741]
[0.05050462962962963, 0.057865740740740745]
[0.05012962962962963, 0.05775]
[0.05086574074074074, 0.0579537037037037]
[0.05048148148148148, 0.05724074074074074]
[0.050620370370370364, 0.057745370370370364]
[0.051550925925925924, 0.05785648148148148]
[0.05121296296296296, 0.0575]
[0.04977314814814815, 0.05583333333333334]
[0.05024074074074074, 0.056810185185185186]
[0.0515, 0.05901851851851852]
[0.05068981481481482, 0.05758796296296296]
[0.04947685185185185, 0.056013888888888884]
[0.05141666666666667, 0.05826851851851852]
[0.05057407407407408, 0.05701851851851852]
[0.049375, 0.05685648148148148]
[0.05175925925925926, 0.05883796296296296]
[0.050125, 0.05663888888888889]
[0.0515, 0.05718981481481482]
[0.050805555555555555, 0.058055555555555555]
[0.04988888888888889, 0.05719444444444445]
[0.04904166666666667, 0.05581481481481481]
[0.04975925925925927, 0.056740740740740744]
[0.048796296296296296, 0.05630092592592592]
[0.050722222222222224, 0.05759722222222222]
[0.05038425925925926, 0.057180555555555554]
[0.05090740740740741, 0.05763425925925926]
[0.050629629629629636, 0.057208333333333326]
[0.050518518518518525, 0.057805555555555554]
[0.051569444444444446, 0.058379629629629635]
[0.04915740740740741, 0.05550925925925926]
[0.05084259259259259, 0.05706481481481482]
[0.05015277777777778, 0.057574074074074076]
[0.051, 0.05919907407407408]
[0.05125, 0.05894907407407408]
[0.051430555555555556, 0.058]
[0.05125925925925926, 0.05869907407407408]
[0.05132407407407408, 0.058379629629629635]
[0.048638888888888884, 0.05604629629629629]
[0.05058796296296296, 0.05825925925925926]
[0.049638888888888885, 0.0577037037037037]
[0.05077314814814815, 0.05895370370370371]
[0.051347222222222225, 0.05774074074074074]
[0.0497037037037037, 0.05638888888888889]
[0.05031481481481481, 0.057458333333333333]
[0.05086574074074074, 0.05767592592592592]
[0.0505787037037037, 0.057944444444444444]
[0.049560185185185186, 0.05635648148148148]
[0.051129629629629636, 0.057138888888888885]
[0.049601851851851855, 0.056143518518518516]
[0.05085648148148148, 0.05690740740740741]
[0.050245370370370364, 0.05597685185185185]
[0.052069444444444446, 0.05821296296296296]
[0.050990740740740746, 0.058625]
[0.050125, 0.05663425925925926]
[0.050245370370370364, 0.05796296296296296]
[0.04978240740740741, 0.057199074074074076]
[0.051814814814814814, 0.05827314814814815]
[0.05110648148148148, 0.05783796296296296]
[0.050199074074074077, 0.05755092592592592]
[0.05069907407407408, 0.0575462962962963]
[0.04998611111111111, 0.05743518518518519]
[0.050884259259259254, 0.05814351851851852]
[0.05133333333333333, 0.05754166666666667]
[0.04998611111111111, 0.05780092592592592]
[0.04943518518518519, 0.0567175925925926]
[0.0512037037037037, 0.057699074074074076]
[0.05085185185185185, 0.05795370370370371]
[0.05063888888888889, 0.05770833333333333]
[0.04940740740740741, 0.056597222222222215]
[0.05025, 0.05610185185185185]
[0.051694444444444446, 0.0585]
[0.0494675925925926, 0.05605092592592592]
[0.04934722222222222, 0.05516203703703704]
[0.05135185185185185, 0.058365740740740746]
[0.05078703703703704, 0.05776388888888889]
[0.050208333333333334, 0.05725925925925927]
[0.051504629629629636, 0.058097222222222224]
[0.04931944444444445, 0.05637037037037037]
[0.05036111111111111, 0.05709722222222222]
[0.05083333333333333, 0.058305555555555555]
[0.04991203703703704, 0.057944444444444444]
[0.04949537037037037, 0.0569675925925926]
[0.049324074074074076, 0.056824074074074075]
[0.049134259259259266, 0.05703240740740741]
[0.05002777777777777, 0.056060185185185185]
[0.05120833333333333, 0.05712037037037037]
[0.04905092592592592, 0.05641666666666667]
[0.05340277777777778, 0.06007407407407408]
[0.050074074074074076, 0.05757407407407407]
[0.0503425925925926, 0.0565]
[0.051069444444444445, 0.0573287037037037]
[0.05023148148148148, 0.05715277777777778]
[0.05145370370370371, 0.057930555555555555]
[0.04985648148148148, 0.056398148148148156]
[0.050245370370370364, 0.05797222222222223]
[0.04881018518518519, 0.055893518518518516]
[0.05076851851851852, 0.05891203703703704]
[0.049555555555555554, 0.057236111111111106]
[0.049435185185185186, 0.05672222222222222]
[0.04988425925925926, 0.056384259259259266]
[0.04859722222222223, 0.055532407407407405]
[0.04986574074074074, 0.056504629629629634]
[0.04983796296296296, 0.05630555555555556]
[0.04979166666666667, 0.05733796296296296]
[0.04893518518518519, 0.055245370370370375]
[0.04952777777777778, 0.05748611111111111]
[0.05105092592592593, 0.05743981481481481]
[0.048837962962962965, 0.055592592592592596]
[0.049875, 0.05655555555555556]
[0.04937037037037037, 0.05547685185185185]
[0.05060185185185185, 0.05783796296296296]
[0.0494675925925926, 0.05656018518518519]
[0.05074074074074073, 0.05716203703703704]
[0.05037962962962963, 0.056629629629629634]
[0.05049537037037037, 0.05667129629629629]
[0.050208333333333334, 0.05597222222222222]
[0.05010648148148148, 0.057333333333333326]
[0.04964814814814815, 0.056930555555555554]
[0.050638888888888886, 0.05864814814814815]
[0.051689814814814806, 0.05726388888888889]
[0.0497962962962963, 0.05643981481481482]
[0.051444444444444445, 0.05806481481481481]
[0.05053240740740741, 0.05665277777777778]
[0.049805555555555554, 0.057162037037037046]
[0.05031944444444445, 0.05728703703703703]
[0.04972222222222222, 0.05636111111111111]
[0.05056018518518518, 0.056148148148148155]
[0.050444444444444445, 0.05692592592592592]
[0.05, 0.05593981481481482]
[0.05126388888888889, 0.05724537037037037]
