[0.0023148148148148147, 0.0023148148148148147]
[0.10024537037037037, 0.10069907407407408]
[0.07218055555555557, 0.07311111111111111]
[0.06882407407407408, 0.07002777777777777]
[0.06485185185185184, 0.06717592592592593]
[0.06384259259259259, 0.06580092592592593]
[0.06271296296296296, 0.06397222222222222]
[0.061976851851851845, 0.063875]
[0.06140277777777778, 0.06215740740740741]
[0.06107407407407408, 0.06348611111111112]
[0.06010648148148148, 0.06141666666666667]
[0.05898148148148148, 0.060875]
[0.05880092592592592, 0.05978703703703704]
[0.060203703703703704, 0.061578703703703705]
[0.05848148148148148, 0.060055555555555556]
[0.057824074074074076, 0.059254629629629636]
[0.05862962962962963, 0.05975]
[0.05791203703703704, 0.0596574074074074]
[0.0577962962962963, 0.05952777777777778]
[0.05531018518518519, 0.05790740740740741]
[0.05711574074074074, 0.05935185185185185]
[0.05850925925925926, 0.06013425925925927]
[0.0573287037037037, 0.059736111111111115]
[0.05740740740740741, 0.05938888888888889]
[0.057319444444444444, 0.05843518518518519]
[0.056509259259259266, 0.058898148148148144]
[0.05669444444444444, 0.057601851851851855]
[0.05648148148148148, 0.05879166666666667]
[0.05767129629629629, 0.05910648148148148]
[0.05677314814814815, 0.05834722222222223]
[0.05832407407407408, 0.06016666666666667]
[0.058513888888888886, 0.06001388888888889]
[0.05638888888888889, 0.058513888888888886]
[0.055939814814814824, 0.05723148148148148]
[0.05714351851851852, 0.05934259259259259]
[0.058125, 0.059814814814814814]
[0.057444444444444444, 0.059444444444444446]
[0.057694444444444444, 0.058486111111111114]
[0.0569675925925926, 0.05910648148148148]
[0.055754629629629626, 0.0575925925925926]
[0.05580555555555556, 0.058259259259259254]
[0.057430555555555554, 0.05881481481481481]
[0.05531944444444444, 0.05726851851851852]
[0.057879629629629635, 0.05941666666666667]
[0.056532407407407406, 0.05823611111111111]
[0.055685185185185185, 0.05725925925925927]
[0.05514814814814815, 0.05692129629629629]
[0.05656481481481481, 0.05785648148148148]
[0.056032407407407406, 0.05808796296296296]
[0.05850925925925926, 0.060731481481481484]
[0.05600462962962963, 0.05735648148148148]
[0.05558333333333333, 0.057379629629629635]
[0.05500925925925926, 0.05649074074074073]
[0.056833333333333326, 0.05896296296296296]
[0.056157407407407406, 0.05780555555555555]
[0.057601851851851855, 0.05883333333333333]
[0.05516666666666667, 0.05704629629629629]
[0.05550925925925925, 0.05793981481481481]
[0.05631481481481481, 0.057277777777777775]
[0.05627777777777778, 0.057125]
[0.055722222222222215, 0.058138888888888886]
[0.05653703703703704, 0.05842592592592592]
[0.055888888888888884, 0.057407407407407414]
[0.05547222222222222, 0.057388888888888885]
[0.05749074074074074, 0.0589074074074074]
[0.05733796296296296, 0.0596574074074074]
[0.05723148148148148, 0.058388888888888886]
[0.05632870370370371, 0.057976851851851856]
[0.057194444444444444, 0.059055555555555556]
[0.05556944444444444, 0.05679166666666667]
[0.057189814814814825, 0.05877314814814815]
[0.057564814814814826, 0.058847222222222224]
[0.056296296296296296, 0.05875]
[0.05574537037037037, 0.05777314814814814]
[0.056712962962962965, 0.05835648148148148]
[0.055907407407407406, 0.057013888888888885]
[0.0559675925925926, 0.058305555555555555]
[0.056018518518518516, 0.05821296296296296]
[0.05592129629629629, 0.05808796296296297]
[0.056648148148148156, 0.05843518518518519]
[0.057254629629629634, 0.05931018518518519]
[0.055462962962962964, 0.057708333333333334]
[0.055717592592592596, 0.05636111111111111]
[0.055217592592592596, 0.05715740740740741]
[0.05616666666666667, 0.05814351851851852]
[0.05536111111111111, 0.05766203703703704]
[0.055087962962962964, 0.05673148148148148]
[0.055726851851851854, 0.057851851851851856]
[0.05656018518518519, 0.05877314814814815]
[0.05629166666666667, 0.05854166666666667]
[0.05500462962962963, 0.05818981481481481]
[0.05566203703703704, 0.057]
[0.054842592592592596, 0.05728703703703704]
[0.05431481481481481, 0.05663425925925926]
[0.05586111111111111, 0.05773148148148148]
[0.05565740740740741, 0.057736111111111106]
[0.05422222222222222, 0.05691666666666667]
[0.055958333333333325, 0.05722222222222223]
[0.056504629629629634, 0.05866203703703704]
[0.05667592592592592, 0.05840740740740741]
[0.05570833333333333, 0.05761574074074074]
[0.05453240740740741, 0.05731481481481481]
[0.05615740740740741, 0.0582962962962963]
[0.05481944444444444, 0.05711574074074074]
[0.05641203703703704, 0.058388888888888886]
[0.05518981481481481, 0.05706018518518519]
[0.05638425925925926, 0.058819444444444445]
[0.05548611111111111, 0.05799537037037037]
[0.057291666666666664, 0.059009259259259254]
[0.054125, 0.05603240740740741]
[0.056, 0.057865740740740745]
[0.05512037037037037, 0.05775]
[0.05673611111111111, 0.0579537037037037]
[0.05581944444444444, 0.05724074074074074]
[0.056648148148148156, 0.057745370370370364]
[0.05590277777777778, 0.05785648148148148]
[0.055990740740740744, 0.0575]
[0.05418055555555556, 0.05583333333333334]
[0.05475462962962963, 0.056810185185185186]
[0.056657407407407406, 0.05901851851851852]
[0.05579166666666667, 0.05758796296296296]
[0.05428240740740741, 0.056013888888888884]
[0.05613425925925925, 0.05826851851851852]
[0.055625, 0.05701851851851852]
[0.05453703703703704, 0.05685648148148148]
[0.0570925925925926, 0.05883796296296296]
[0.054939814814814816, 0.05663888888888889]
[0.055842592592592596, 0.05718981481481482]
[0.056638888888888884, 0.058055555555555555]
[0.05542592592592593, 0.05719444444444445]
[0.05375462962962963, 0.05581481481481481]
[0.055212962962962964, 0.056740740740740744]
[0.05445833333333334, 0.05630092592592592]
[0.055782407407407406, 0.05759722222222222]
[0.055328703703703706, 0.057180555555555554]
[0.05518055555555556, 0.05763425925925926]
[0.05513425925925925, 0.057208333333333326]
[0.05581944444444444, 0.057805555555555554]
[0.05623611111111111, 0.058379629629629635]
[0.053856481481481484, 0.05550925925925926]
[0.05540277777777778, 0.05706481481481482]
[0.05543055555555556, 0.057574074074074076]
[0.056685185185185186, 0.05919907407407408]
[0.05595370370370371, 0.05894907407407408]
[0.05648148148148148, 0.058]
[0.05674074074074073, 0.05869907407407408]
[0.057208333333333326, 0.058379629629629635]
[0.05474537037037037, 0.05604629629629629]
[0.0557037037037037, 0.05825925925925926]
[0.05536111111111111, 0.0577037037037037]
[0.05669444444444445, 0.05895370370370371]
[0.05606018518518519, 0.05774074074074074]
[0.05478703703703704, 0.05638888888888889]
[0.05542592592592593, 0.057458333333333333]
[0.056125, 0.05767592592592592]
[0.05574074074074075, 0.057944444444444444]
[0.05418981481481481, 0.05635648148148148]
[0.055449074074074074, 0.057138888888888885]
[0.05422222222222222, 0.056143518518518516]
[0.05506481481481482, 0.05690740740740741]
[0.05483333333333334, 0.05597685185185185]
[0.0565787037037037, 0.05821296296296296]
[0.05673611111111111, 0.058625]
[0.055060185185185184, 0.05663425925925926]
[0.0560787037037037, 0.05796296296296296]
[0.05561111111111111, 0.057199074074074076]
[0.05561574074074074, 0.05827314814814815]
[0.056638888888888884, 0.05783796296296296]
[0.05631481481481482, 0.05755092592592592]
[0.05536111111111111, 0.0575462962962963]
[0.05543518518518519, 0.05743518518518519]
[0.05697222222222223, 0.05814351851851852]
[0.05599074074074074, 0.05754166666666667]
[0.0555, 0.05780092592592592]
[0.05474074074074074, 0.0567175925925926]
[0.055907407407407406, 0.057699074074074076]
[0.055032407407407405, 0.05795370370370371]
[0.05558333333333333, 0.05770833333333333]
[0.054138888888888896, 0.056597222222222215]
[0.054648148148148154, 0.05610185185185185]
[0.05591666666666666, 0.0585]
[0.05420833333333334, 0.05605092592592592]
[0.053300925925925925, 0.05516203703703704]
[0.0559675925925926, 0.058365740740740746]
[0.05598611111111111, 0.05776388888888889]
[0.0559675925925926, 0.05725925925925927]
[0.056240740740740744, 0.058097222222222224]
[0.05484722222222222, 0.05637037037037037]
[0.05505092592592593, 0.05709722222222222]
[0.0565462962962963, 0.058305555555555555]
[0.056310185185185185, 0.057944444444444444]
[0.053912037037037036, 0.0569675925925926]
[0.053888888888888896, 0.056824074074074075]
[0.05466203703703704, 0.05703240740740741]
[0.053856481481481484, 0.056060185185185185]
[0.056009259259259266, 0.05712037037037037]
[0.05432870370370371, 0.05641666666666667]
[0.057976851851851856, 0.06007407407407408]
[0.055615740740740736, 0.05757407407407407]
[0.054935185185185184, 0.0565]
[0.05603703703703704, 0.0573287037037037]
[0.05541203703703704, 0.05715277777777778]
[0.05594444444444445, 0.057930555555555555]
[0.054685185185185184, 0.056398148148148156]
[0.05535185185185185, 0.05797222222222223]
[0.053625, 0.055893518518518516]
[0.056587962962962965, 0.05891203703703704]
[0.0545, 0.057236111111111106]
[0.05479166666666667, 0.05672222222222222]
[0.054148148148148154, 0.056384259259259266]
[0.05425, 0.055532407407407405]
[0.05441666666666667, 0.056504629629629634]
[0.0550787037037037, 0.05630555555555556]
[0.05489351851851852, 0.05733796296296296]
[0.05328240740740741, 0.055245370370370375]
[0.05495370370370369, 0.05748611111111111]
[0.05631481481481482, 0.05743981481481481]
[0.053967592592592595, 0.055592592592592596]
[0.05458796296296296, 0.05655555555555556]
[0.0541712962962963, 0.05547685185185185]
[0.05556481481481481, 0.05783796296296296]
[0.05455555555555556, 0.05656018518518519]
[0.05503240740740741, 0.05716203703703704]
[0.055259259259259265, 0.056629629629629634]
[0.05488425925925925, 0.05667129629629629]
[0.0542962962962963, 0.05597222222222222]
[0.05494444444444444, 0.057333333333333326]
[0.05433333333333333, 0.056930555555555554]
[0.056282407407407406, 0.05864814814814815]
[0.054976851851851846, 0.05726388888888889]
[0.05465277777777778, 0.05643981481481482]
[0.0562175925925926, 0.05806481481481481]
[0.05450925925925926, 0.05665277777777778]
[0.05525925925925926, 0.057162037037037046]
[0.054657407407407405, 0.05728703703703703]
[0.05444444444444444, 0.05636111111111111]
[0.05483796296296296, 0.056148148148148155]
[0.054629629629629625, 0.05692592592592592]
[0.054037037037037036, 0.05593981481481482]
[0.05531944444444444, 0.05724537037037037]
