[0.0023148148148148147, 0.0023148148148148147]
[0.09920833333333332, 0.10069907407407408]
[0.06763425925925927, 0.07311111111111111]
[0.06256944444444444, 0.07002777777777777]
[0.05918518518518519, 0.06717592592592593]
[0.05588888888888889, 0.06580092592592593]
[0.055134259259259265, 0.06397222222222222]
[0.05425, 0.063875]
[0.05315277777777778, 0.06215740740740741]
[0.05380555555555556, 0.06348611111111112]
[0.05224074074074074, 0.06141666666666667]
[0.05282870370370371, 0.060875]
[0.052370370370370366, 0.05978703703703704]
[0.05272685185185186, 0.061578703703703705]
[0.05213425925925926, 0.060055555555555556]
[0.05197222222222222, 0.059254629629629636]
[0.0524074074074074, 0.05975]
[0.05175462962962964, 0.0596574074074074]
[0.05227314814814815, 0.05952777777777778]
[0.050726851851851856, 0.05790740740740741]
[0.05256018518518519, 0.05935185185185185]
[0.0527824074074074, 0.06013425925925927]
[0.051444444444444445, 0.059736111111111115]
[0.0527824074074074, 0.05938888888888889]
[0.051486111111111114, 0.05843518518518519]
[0.05038888888888889, 0.058898148148148144]
[0.05066666666666667, 0.057601851851851855]
[0.0512824074074074, 0.05879166666666667]
[0.05194907407407408, 0.05910648148148148]
[0.05209722222222222, 0.05834722222222223]
[0.053388888888888895, 0.06016666666666667]
[0.053287037037037036, 0.06001388888888889]
[0.0515324074074074, 0.058513888888888886]
[0.050120370370370364, 0.05723148148148148]
[0.05256944444444444, 0.05934259259259259]
[0.0532824074074074, 0.059814814814814814]
[0.052125, 0.059444444444444446]
[0.05130092592592592, 0.058486111111111114]
[0.05203703703703704, 0.05910648148148148]
[0.05154166666666667, 0.0575925925925926]
[0.0515462962962963, 0.058259259259259254]
[0.05225925925925926, 0.05881481481481481]
[0.050583333333333334, 0.05726851851851852]
[0.05290740740740741, 0.05941666666666667]
[0.05122685185185186, 0.05823611111111111]
[0.05060648148148148, 0.05725925925925927]
[0.05091203703703704, 0.05692129629629629]
[0.051254629629629636, 0.05785648148148148]
[0.05042592592592592, 0.05808796296296296]
[0.05301851851851852, 0.060731481481481484]
[0.05131481481481482, 0.05735648148148148]
[0.050763888888888886, 0.057379629629629635]
[0.050388888888888886, 0.05649074074074073]
[0.05231018518518518, 0.05896296296296296]
[0.05156481481481481, 0.05780555555555555]
[0.05193981481481481, 0.05883333333333333]
[0.05163888888888889, 0.05704629629629629]
[0.050745370370370364, 0.05793981481481481]
[0.05140277777777778, 0.057277777777777775]
[0.05207407407407408, 0.057125]
[0.051504629629629636, 0.058138888888888886]
[0.051745370370370365, 0.05842592592592592]
[0.05075, 0.057407407407407414]
[0.051277777777777776, 0.057388888888888885]
[0.052, 0.0589074074074074]
[0.05255555555555556, 0.0596574074074074]
[0.05266666666666667, 0.058388888888888886]
[0.05128703703703704, 0.057976851851851856]
[0.05243055555555556, 0.059055555555555556]
[0.05021296296296296, 0.05679166666666667]
[0.05184259259259259, 0.05877314814814815]
[0.05196296296296296, 0.058847222222222224]
[0.05129166666666667, 0.05875]
[0.05089351851851852, 0.05777314814814814]
[0.05199074074074073, 0.05835648148148148]
[0.050375, 0.057013888888888885]
[0.05080092592592592, 0.058305555555555555]
[0.05003703703703704, 0.05821296296296296]
[0.05078240740740741, 0.05808796296296297]
[0.05159259259259259, 0.05843518518518519]
[0.05339351851851852, 0.05931018518518519]
[0.051009259259259254, 0.057708333333333334]
[0.051125, 0.05636111111111111]
[0.05118518518518519, 0.05715740740740741]
[0.05177777777777778, 0.05814351851851852]
[0.05092592592592592, 0.05766203703703704]
[0.04974537037037036, 0.05673148148148148]
[0.05025, 0.057851851851851856]
[0.05224537037037037, 0.05877314814814815]
[0.051986111111111115, 0.05854166666666667]
[0.05201388888888889, 0.05818981481481481]
[0.05059259259259259, 0.057]
[0.050842592592592585, 0.05728703703703704]
[0.05054629629629629, 0.05663425925925926]
[0.051800925925925924, 0.05773148148148148]
[0.05153703703703704, 0.057736111111111106]
[0.050430555555555555, 0.05691666666666667]
[0.05055092592592592, 0.05722222222222223]
[0.05268518518518519, 0.05866203703703704]
[0.05166666666666667, 0.05840740740740741]
[0.05099537037037037, 0.05761574074074074]
[0.051069444444444445, 0.05731481481481481]
[0.05106481481481482, 0.0582962962962963]
[0.0504212962962963, 0.05711574074074074]
[0.05234259259259259, 0.058388888888888886]
[0.051314814814814806, 0.05706018518518519]
[0.05247685185185185, 0.058819444444444445]
[0.05172222222222223, 0.05799537037037037]
[0.05221759259259259, 0.059009259259259254]
[0.04991666666666667, 0.05603240740740741]
[0.051444444444444445, 0.057865740740740745]
[0.051375, 0.05775]
[0.05175, 0.0579537037037037]
[0.051430555555555556, 0.05724074074074074]
[0.05202777777777778, 0.057745370370370364]
[0.052541666666666674, 0.05785648148148148]
[0.05216203703703704, 0.0575]
[0.05018981481481482, 0.05583333333333334]
[0.051194444444444445, 0.056810185185185186]
[0.05227777777777778, 0.05901851851851852]
[0.05160648148148148, 0.05758796296296296]
[0.04989351851851852, 0.056013888888888884]
[0.052361111111111115, 0.05826851851851852]
[0.05106481481481482, 0.05701851851851852]
[0.05023148148148148, 0.05685648148148148]
[0.05239351851851852, 0.05883796296296296]
[0.05084722222222222, 0.05663888888888889]
[0.052412037037037035, 0.05718981481481482]
[0.0519537037037037, 0.058055555555555555]
[0.050444444444444445, 0.05719444444444445]
[0.049240740740740745, 0.05581481481481481]
[0.050680555555555555, 0.056740740740740744]
[0.04946296296296296, 0.05630092592592592]
[0.051569444444444446, 0.05759722222222222]
[0.05073148148148148, 0.057180555555555554]
[0.051805555555555556, 0.05763425925925926]
[0.05166666666666667, 0.057208333333333326]
[0.05124074074074074, 0.057805555555555554]
[0.05234722222222221, 0.058379629629629635]
[0.04975925925925925, 0.05550925925925926]
[0.05147685185185186, 0.05706481481481482]
[0.05089351851851852, 0.057574074074074076]
[0.051717592592592586, 0.05919907407407408]
[0.05187962962962964, 0.05894907407407408]
[0.05201388888888889, 0.058]
[0.05214351851851852, 0.05869907407407408]
[0.05215740740740741, 0.058379629629629635]
[0.049486111111111106, 0.05604629629629629]
[0.05110648148148148, 0.05825925925925926]
[0.05013425925925925, 0.0577037037037037]
[0.05079629629629629, 0.05895370370370371]
[0.05201851851851852, 0.05774074074074074]
[0.05076851851851852, 0.05638888888888889]
[0.05129166666666667, 0.057458333333333333]
[0.05182407407407408, 0.05767592592592592]
[0.05130092592592592, 0.057944444444444444]
[0.05030092592592592, 0.05635648148148148]
[0.05219907407407408, 0.057138888888888885]
[0.05043518518518519, 0.056143518518518516]
[0.05178703703703704, 0.05690740740740741]
[0.051111111111111114, 0.05597685185185185]
[0.05256018518518519, 0.05821296296296296]
[0.052069444444444446, 0.058625]
[0.05078240740740741, 0.05663425925925926]
[0.05081481481481482, 0.05796296296296296]
[0.0505462962962963, 0.057199074074074076]
[0.052305555555555557, 0.05827314814814815]
[0.051805555555555556, 0.05783796296296296]
[0.05139351851851852, 0.05755092592592592]
[0.051402777777777776, 0.0575462962962963]
[0.05051851851851852, 0.05743518518518519]
[0.05188425925925926, 0.05814351851851852]
[0.05208796296296296, 0.05754166666666667]
[0.05073148148148148, 0.05780092592592592]
[0.050069444444444444, 0.0567175925925926]
[0.052175925925925924, 0.057699074074074076]
[0.05168518518518519, 0.05795370370370371]
[0.051402777777777776, 0.05770833333333333]
[0.04966203703703704, 0.056597222222222215]
[0.05102314814814815, 0.05610185185185185]
[0.05211574074074073, 0.0585]
[0.050638888888888886, 0.05605092592592592]
[0.05021296296296296, 0.05516203703703704]
[0.05251851851851852, 0.058365740740740746]
[0.051819444444444446, 0.05776388888888889]
[0.05122685185185186, 0.05725925925925927]
[0.05257407407407408, 0.058097222222222224]
[0.05033796296296296, 0.05637037037037037]
[0.050694444444444445, 0.05709722222222222]
[0.05126851851851852, 0.058305555555555555]
[0.050805555555555555, 0.057944444444444444]
[0.05015277777777777, 0.0569675925925926]
[0.04980555555555555, 0.056824074074074075]
[0.04983796296296296, 0.05703240740740741]
[0.05093981481481481, 0.056060185185185185]
[0.052138888888888894, 0.05712037037037037]
[0.050074074074074076, 0.05641666666666667]
[0.053976851851851845, 0.06007407407407408]
[0.05089814814814815, 0.05757407407407407]
[0.05122222222222223, 0.0565]
[0.051763888888888894, 0.0573287037037037]
[0.05084722222222223, 0.05715277777777778]
[0.05226851851851852, 0.057930555555555555]
[0.050569444444444445, 0.056398148148148156]
[0.05106481481481482, 0.05797222222222223]
[0.04985648148148148, 0.055893518518518516]
[0.05136574074074074, 0.05891203703703704]
[0.050666666666666665, 0.057236111111111106]
[0.04998148148148148, 0.05672222222222222]
[0.050652777777777776, 0.056384259259259266]
[0.04956481481481481, 0.055532407407407405]
[0.05097685185185185, 0.056504629629629634]
[0.050773148148148144, 0.05630555555555556]
[0.05064351851851852, 0.05733796296296296]
[0.04931481481481481, 0.055245370370370375]
[0.050402777777777776, 0.05748611111111111]
[0.052013888888888894, 0.05743981481481481]
[0.0499675925925926, 0.055592592592592596]
[0.050486111111111114, 0.05655555555555556]
[0.050310185185185194, 0.05547685185185185]
[0.051412037037037034, 0.05783796296296296]
[0.05023148148148148, 0.05656018518518519]
[0.050986111111111114, 0.05716203703703704]
[0.051162037037037034, 0.056629629629629634]
[0.05118981481481482, 0.05667129629629629]
[0.0505, 0.05597222222222222]
[0.05089814814814815, 0.057333333333333326]
[0.05011111111111111, 0.056930555555555554]
[0.05164351851851852, 0.05864814814814815]
[0.052305555555555557, 0.05726388888888889]
[0.05046296296296296, 0.05643981481481482]
[0.051925925925925924, 0.05806481481481481]
[0.051425925925925924, 0.05665277777777778]
[0.0505787037037037, 0.057162037037037046]
[0.05125, 0.05728703703703703]
[0.05039814814814815, 0.05636111111111111]
[0.05123148148148148, 0.056148148148148155]
[0.05135185185185185, 0.05692592592592592]
[0.0509537037037037, 0.05593981481481482]
[0.052064814814814814, 0.05724537037037037]
