[8.259850672963111, 8.163382852371747]
[6.027830938356097, 5.684888578430921]
[4.230938856659237, 4.058670783389056]
[3.823198425513414, 3.6647470160241604]
[3.6415737902194976, 3.4626753124623004]
[3.4799699621295694, 3.3357794434808388]
[3.3402195525988327, 3.2044646295663988]
[3.1946739241698534, 3.1254843984110714]
[3.0664648458853376, 3.0488360084740096]
[2.94199829651279, 2.9909049341455867]
[2.8104074979109264, 2.935686408710686]
[2.6782884669796894, 2.8834434046493658]
[2.557126384005653, 2.8630671148094886]
[2.4388707287191784, 2.814193503349103]
[2.32670444870526, 2.7726508787109125]
[2.2042660934860603, 2.7440759695252237]
[2.011507411444182, 2.7149980599288344]
[1.7883147572417797, 2.698805729622617]
[1.484626517956789, 2.6612018722924056]
[1.1931145468193298, 2.643608629786361]
[0.9869326544780183, 2.627769615134632]
[0.8008986354546149, 2.599384507378297]
[0.6850564527796558, 2.5919109373075075]
[0.5746318347076677, 2.5946168449189835]
[0.4999370158237269, 2.5627033197716984]
[0.446597410050574, 2.5486176194024424]
[0.38827939144002693, 2.523420679248521]
[0.337440685744947, 2.5108022419857954]
[0.31998196738047713, 2.517637947666592]
[0.2882897625360081, 2.4923766825615945]
[0.27385713867744044, 2.4835788570860515]
[0.25037060575733777, 2.462197803323997]
[0.24171043588347552, 2.4803942006814377]
[0.22806229089383545, 2.4621348542341286]
[0.21763717671170477, 2.4602948737663017]
[0.21448343491950994, 2.430458697477772]
[0.20016565948434897, 2.4425736534663054]
[0.18753170110985024, 2.4225492167404528]
[0.18030998322840402, 2.417718471044804]
[0.18127132826005912, 2.4148533604692846]
[0.17633312322511233, 2.412428366568005]
[0.16710387052026215, 2.404266681528363]
[0.15932273228760363, 2.403268536874452]
[0.15977486736745924, 2.385663259022501]
[0.15381994527213544, 2.382910683574748]
[0.1458841583910076, 2.3834635534507536]
[0.14727476622881047, 2.368586875289164]
[0.14360787195452782, 2.365188657020084]
[0.14126359000574845, 2.347020255686482]
[0.13553692532694372, 2.345627655064206]
[0.13388696105180553, 2.3465132852282684]
[0.13291986887590657, 2.3369675443523756]
[0.1270809200135217, 2.3396250030752426]
[0.12061203905245585, 2.333744463583906]
[0.12478960293829146, 2.324564071644616]
[0.12431070916377937, 2.3192730480925317]
[0.1200132201201641, 2.3179665468007915]
[0.11685267164160908, 2.3089029840520943]
[0.11158757256083526, 2.3122419508582985]
[0.11488239958973916, 2.3152007878509537]
[0.1132983933914314, 2.3028178120355243]
[0.10776873875179532, 2.3210856778154265]
[0.11247944296489985, 2.3110669199841842]
[0.10756472130101512, 2.298716296169173]
[0.10364856862598494, 2.27971157140958]
[0.10336952197019474, 2.2986115724934097]
[0.10250164037270523, 2.2862138041062146]
[0.10175910968466048, 2.2962532246210627]
[0.09868550153180433, 2.274668286802272]
[0.10085285222242278, 2.2922404875749485]
[0.0939972908866105, 2.2723574673673865]
[0.09468241140103578, 2.280766848700107]
[0.09348732852146245, 2.264385250110754]
[0.09361110244673901, 2.2516139918161944]
[0.09302971211804766, 2.2717225755255304]
[0.09196612955958329, 2.257456070483353]
[0.08765907580832945, 2.255102634435514]
[0.08844049744916177, 2.2599118451515534]
[0.08873101421912838, 2.265882875722398]
[0.08706649943780524, 2.2535845662780574]
[0.09002068483720059, 2.253101624547892]
[0.08840764353887394, 2.2468428071521913]
[0.08785306291919281, 2.243727664759195]
[0.08190402844569188, 2.2518654648482856]
[0.08543775742407364, 2.2478989237180547]
[0.08251039611573771, 2.243737671397753]
[0.08328102766179511, 2.232293239304612]
[0.08586219744973024, 2.2335186039971893]
[0.08264718545155542, 2.2409423486302322]
[0.0852002123102219, 2.224469475408413]
[0.08133495853490061, 2.212448701247076]
[0.08157577928406524, 2.2150044886422675]
[0.08146305735089407, 2.234263332215053]
[0.08086647808417104, 2.2276365833912632]
[0.07813691046470135, 2.2179369166669867]
[0.07827681581443414, 2.2256465329260853]
[0.0812313542189693, 2.2094040696771415]
[0.07735707425668494, 2.227586826746577]
[0.07679253964663499, 2.2254032937353867]
[0.07768520831892248, 2.210960216857291]
[0.07822154850164877, 2.2158720386142106]
[0.07733601822725931, 2.19282743037896]
[0.07564584843919277, 2.195251461865325]
[0.07563347880200777, 2.197226179045283]
[0.07643796745465331, 2.194341659195718]
[0.07744022140827878, 2.1987418477007936]
[0.07013641995894732, 2.189533466616972]
[0.07617605411900084, 2.2078715068218715]
[0.07244144880247205, 2.1817000531181985]
[0.07581422979484433, 2.2015499597861634]
[0.073072990293302, 2.1819186279329723]
[0.07881235204276113, 2.1878633795547655]
[0.07361660076312171, 2.1734745405013074]
[0.07322198784983797, 2.198552769974435]
[0.06915432949853405, 2.1895458947712543]
[0.0702177187807456, 2.190746742992985]
[0.07730663843101242, 2.1671475154742037]
[0.07591700499316477, 2.182318208296403]
[0.07263260348806269, 2.17658981635284]
[0.07180478800081411, 2.1859881357642053]
[0.07078755909857032, 2.1779263375602533]
[0.07441643566197516, 2.177747931013416]
[0.07279611460676039, 2.173267447248305]
[0.0712499987124329, 2.1679949771845957]
[0.07091488619616261, 2.1768535434927707]
[0.0718257150432516, 2.179551137462905]
[0.07119380055429866, 2.1699638930457743]
[0.07168190585932685, 2.169750878774069]
[0.06788456729115609, 2.1645657910314706]
[0.07191820316380415, 2.1628246407379277]
[0.06953473923534523, 2.1687909087652053]
[0.0706366459025288, 2.174468717171497]
[0.0690389813687864, 2.1727926574957905]
[0.06961731081475121, 2.1835206532050653]
[0.07057197688941112, 2.1614943281042107]
[0.0713265689357392, 2.1482900443240713]
[0.06954036388494603, 2.145959865146143]
[0.06848395177764627, 2.146441325073789]
[0.06681537423941289, 2.1548675214942503]
[0.06720960177182281, 2.142724264040691]
[0.06767872078338612, 2.157104167563541]
[0.06828357119023926, 2.150506659230051]
[0.06650935306148835, 2.1545513093768593]
[0.06641024636059996, 2.1389291744788967]
[0.06905407652252878, 2.1468788434341386]
[0.0646501443098579, 2.161913458079531]
[0.07069737712562991, 2.1428547500296227]
[0.06553805565180179, 2.146071953806947]
[0.06527095545913521, 2.1563669611788954]
[0.06843333310216916, 2.1530481060238826]
[0.0669513879119774, 2.1322336559844026]
[0.06800999316353878, 2.133622864420873]
[0.068248173043857, 2.1462744998386603]
[0.06494690044916408, 2.118778098672047]
[0.0681405387337104, 2.1272488441025263]
[0.06448497664351817, 2.1378600869815054]
[0.06435633012727518, 2.139931404752661]
[0.06821496494604865, 2.131357147092211]
[0.06710107521030909, 2.1311292391229397]
[0.06606408203495584, 2.1186627987511857]
[0.06572210777637925, 2.128568492436029]
