[8.177127705828703, 8.163382852371747]
[5.669533221645115, 5.684888578430921]
[3.773521408794342, 4.058670783389056]
[2.7197227033357914, 3.6647470160241604]
[1.7137030250682797, 3.4626753124623004]
[1.1752423862897694, 3.3357794434808388]
[0.8912011767464109, 3.2044646295663988]
[0.7438827907083468, 3.1254843984110714]
[0.6566085140855332, 3.0488360084740096]
[0.6088854206400515, 2.9909049341455867]
[0.5752785828614913, 2.935686408710686]
[0.5460605147999027, 2.8834434046493658]
[0.5254061027002347, 2.8630671148094886]
[0.504568128013856, 2.814193503349103]
[0.48866827363947063, 2.7726508787109125]
[0.4787245591480621, 2.7440759695252237]
[0.46535249494115133, 2.7149980599288344]
[0.45485481040071896, 2.698805729622617]
[0.4481533731232952, 2.6612018722924056]
[0.43974210909649514, 2.643608629786361]
[0.42944907685930084, 2.627769615134632]
[0.43054293768362684, 2.599384507378297]
[0.4182627528889216, 2.5919109373075075]
[0.42172771229333905, 2.5946168449189835]
[0.4213220008343961, 2.5627033197716984]
[0.40829172978833056, 2.5486176194024424]
[0.41042092307516304, 2.523420679248521]
[0.4039200670996488, 2.5108022419857954]
[0.4028719733524657, 2.517637947666592]
[0.39952855769904877, 2.4923766825615945]
[0.3920657075648615, 2.4835788570860515]
[0.39050602605524604, 2.462197803323997]
[0.38957676200085006, 2.4803942006814377]
[0.39503272181661747, 2.4621348542341286]
[0.386716522575943, 2.4602948737663017]
[0.38034427342092614, 2.430458697477772]
[0.3834503610133457, 2.4425736534663054]
[0.3819195915931581, 2.4225492167404528]
[0.3790836746426666, 2.417718471044804]
[0.378145480217142, 2.4148533604692846]
[0.37306723876018466, 2.412428366568005]
[0.3719687143683065, 2.404266681528363]
[0.3733129440961056, 2.403268536874452]
[0.3657986885195581, 2.385663259022501]
[0.36878059672685276, 2.382910683574748]
[0.36454454983962165, 2.3834635534507536]
[0.3670066337773601, 2.368586875289164]
[0.3660800634012333, 2.365188657020084]
[0.35912148204979705, 2.347020255686482]
[0.3576790566777046, 2.345627655064206]
[0.3580738548915458, 2.3465132852282684]
[0.3547371015880493, 2.3369675443523756]
[0.3567542869599324, 2.3396250030752426]
[0.3544938322143951, 2.333744463583906]
[0.3502824165104379, 2.324564071644616]
[0.3515320412477286, 2.3192730480925317]
[0.35167809183854626, 2.3179665468007915]
[0.3509244082260779, 2.3089029840520943]
[0.35011887700385397, 2.3122419508582985]
[0.34847827137964077, 2.3152007878509537]
[0.34844175335747846, 2.3028178120355243]
[0.3503991678788807, 2.3210856778154265]
[0.34853265925914095, 2.3110669199841842]
[0.3456829953914007, 2.298716296169173]
[0.34199669087566986, 2.27971157140958]
[0.3441943352353462, 2.2986115724934097]
[0.3469303926093973, 2.2862138041062146]
[0.34303835754519885, 2.2962532246210627]
[0.34109447762846284, 2.274668286802272]
[0.3428751854795484, 2.2922404875749485]
[0.3398148136274506, 2.2723574673673865]
[0.33910641597065944, 2.280766848700107]
[0.3353253065345884, 2.264385250110754]
[0.33709937989694305, 2.2516139918161944]
[0.3392886029541372, 2.2717225755255304]
[0.33661922953119244, 2.257456070483353]
[0.3339538854037834, 2.255102634435514]
[0.33802363452667594, 2.2599118451515534]
[0.33932798156373134, 2.265882875722398]
[0.3355417724121056, 2.2535845662780574]
[0.3335269049363994, 2.253101624547892]
[0.33113606051221467, 2.2468428071521913]
[0.3336134772192255, 2.243727664759195]
[0.33357708912995593, 2.2518654648482856]
[0.33146908582553625, 2.2478989237180547]
[0.32709560700006135, 2.243737671397753]
[0.32814604607465425, 2.232293239304612]
[0.3305096657311988, 2.2335186039971893]
[0.32437647228889854, 2.2409423486302322]
[0.32794202013223067, 2.224469475408413]
[0.3260077304840547, 2.212448701247076]
[0.32501045477248786, 2.2150044886422675]
[0.32849678173140506, 2.234263332215053]
[0.32822505817213093, 2.2276365833912632]
[0.3268115363763252, 2.2179369166669867]
[0.32539986829552175, 2.2256465329260853]
[0.32273132649468517, 2.2094040696771415]
[0.3251185090642678, 2.227586826746577]
[0.3231528671508222, 2.2254032937353867]
[0.3246456498170093, 2.210960216857291]
[0.3269247458480648, 2.2158720386142106]
[0.32147209910608365, 2.19282743037896]
[0.32003976163435166, 2.195251461865325]
[0.3184814250290658, 2.197226179045283]
[0.3188284054446351, 2.194341659195718]
[0.3214432522840718, 2.1987418477007936]
[0.318127799117876, 2.189533466616972]
[0.32175558748255534, 2.2078715068218715]
[0.31469827811453, 2.1817000531181985]
[0.3200226308724558, 2.2015499597861634]
[0.31880827788504795, 2.1819186279329723]
[0.3159651448864916, 2.1878633795547655]
[0.31477252302490755, 2.1734745405013074]
[0.3177064698284169, 2.198552769974435]
[0.3157179186219978, 2.1895458947712543]
[0.3185436374312497, 2.190746742992985]
[0.31308251134264176, 2.1671475154742037]
[0.31236324868188226, 2.182318208296403]
[0.3180091222316741, 2.17658981635284]
[0.3148450612654492, 2.1859881357642053]
[0.3151641344002281, 2.1779263375602533]
[0.31375330869044865, 2.177747931013416]
[0.3114763420625848, 2.173267447248305]
[0.3108872826512794, 2.1679949771845957]
[0.3124895003719588, 2.1768535434927707]
[0.31436022480241915, 2.179551137462905]
[0.3117702333256418, 2.1699638930457743]
[0.31070231384842384, 2.169750878774069]
[0.3094459958043357, 2.1645657910314706]
[0.31197679618414825, 2.1628246407379277]
[0.3149379343906636, 2.1687909087652053]
[0.309495136751132, 2.174468717171497]
[0.3102061788131628, 2.1727926574957905]
[0.3134588648471345, 2.1835206532050653]
[0.3105637185335384, 2.1614943281042107]
[0.3106939689062387, 2.1482900443240713]
[0.30979030704916344, 2.145959865146143]
[0.3091078139351932, 2.146441325073789]
[0.3095372066312381, 2.1548675214942503]
[0.30733895543077816, 2.142724264040691]
[0.3084817112667099, 2.157104167563541]
[0.30383532813507147, 2.150506659230051]
[0.3065774828960348, 2.1545513093768593]
[0.3074441361504362, 2.1389291744788967]
[0.3099163886483982, 2.1468788434341386]
[0.30654491264963185, 2.161913458079531]
[0.3040223111127424, 2.1428547500296227]
[0.3072992565894882, 2.146071953806947]
[0.3087459701769972, 2.1563669611788954]
[0.30643696877071364, 2.1530481060238826]
[0.3037531108829219, 2.1322336559844026]
[0.30360606287872044, 2.133622864420873]
[0.3067110228668896, 2.1462744998386603]
[0.3021429962348628, 2.118778098672047]
[0.3004947631800838, 2.1272488441025263]
[0.3043316291335905, 2.1378600869815054]
[0.3047461103318664, 2.139931404752661]
[0.2995371287816102, 2.131357147092211]
[0.3011247225595128, 2.1311292391229397]
[0.299661201365509, 2.1186627987511857]
[0.3027394566615741, 2.128568492436029]
[0.3027063998762517, 2.1395494704971387]
[0.30243152473490065, 2.122379378232861]
[0.2976458918943901, 2.122321446908814]
[0.30221412825925964, 2.1280771930369617]
[0.301588125426705, 2.120249692301725]
[0.3005952691533174, 2.1308239781728258]
[0.30026076470320706, 2.131090549905802]
[0.29921647830794884, 2.1174204634985516]
[0.2988938615566401, 2.1180047243359246]
[0.3005212580533538, 2.1211291854368746]
[0.30242819231306617, 2.116052692355546]
[0.30074138853719556, 2.1176304020325296]
[0.29774006340262715, 2.121071084881899]
[0.29646346920594147, 2.1200291149209654]
[0.2922668929390227, 2.110706950115332]
[0.29728067985597695, 2.1174493311304645]
[0.2973764802119002, 2.114330835075777]
[0.29550120572243727, 2.1070454367267413]
[0.29937172369322096, 2.1089694444781264]
[0.29721294844453555, 2.1227546271787787]
[0.2971619984982261, 2.1184505666565765]
[0.2955706421698793, 2.0933626339222857]
[0.297279253001914, 2.0996649264683334]
[0.2910128669077225, 2.0943177450772974]
[0.2919057026289085, 2.0926484057956567]
[0.29513550129769467, 2.1145491065131536]
[0.2948922890222806, 2.1093163217900965]
[0.2933843774722538, 2.100356662015952]
[0.2958481055641346, 2.1068805617748727]
[0.2980856205757691, 2.1195568491858348]
[0.2951642011605314, 2.1080904741702353]
[0.29536627699167683, 2.10496734146328]
[0.2911316546367428, 2.08701279367672]
[0.2952920898674701, 2.100622411671857]
[0.29078110721500333, 2.103353141195367]
[0.29159674456774864, 2.092273125892862]
[0.2920713179660884, 2.091707906974593]
[0.29485673221115405, 2.1036581785680357]
[0.2942933333852793, 2.1003525832754044]
[0.29431269622400935, 2.1083960474408436]
[0.29183276538861685, 2.0889584905041705]
[0.2915391840382967, 2.0927327096273176]
[0.2963314759610573, 2.110958363985392]
[0.291207727206751, 2.0935709833365697]
[0.2953331233801221, 2.103080669769536]
[0.2914588799211554, 2.0819768197079345]
[0.2948255847772216, 2.102877135869476]
[0.2894961088281092, 2.0931676695737536]
[0.29130612897225133, 2.0809591206266207]
[0.28967168918404546, 2.0864715911037477]
[0.2912180424681758, 2.0916312832001887]
[0.28898704327724306, 2.078953189283462]
[0.2972535684249035, 2.094299448187037]
[0.2914187356447996, 2.092334154280486]
[0.2901511857147532, 2.0967117525204055]
[0.2890859967630874, 2.0904984995202933]
[0.2902036627380153, 2.097480255619925]
[0.2902283860179988, 2.078811663384206]
[0.28946194843011636, 2.082083030001732]
[0.29189440311077286, 2.0928991640678514]
[0.2923873173409398, 2.082664792275152]
[0.2938653485392144, 2.086235598574026]
[0.2896396059065183, 2.08847825646886]
[0.2908816132742283, 2.0856101286297153]
[0.2923854699033043, 2.102870859878581]
[0.2860881575448693, 2.067160990384081]
[0.29156724911316906, 2.091394032445393]
[0.2866188778612623, 2.0712918788234074]
[0.28685316612890577, 2.08607535408305]
[0.2868703439280565, 2.075254798686942]
[0.28856880056041906, 2.079665615719841]
[0.28746402855478287, 2.082910713019343]
[0.28996492020570586, 2.0904230885675434]
[0.2858548764936207, 2.084394227110519]
[0.2872013609999639, 2.0848328399684593]
[0.2889573221814255, 2.073917331574949]
[0.2842049121754868, 2.0727122243748517]
[0.2875054590033931, 2.065838743736689]
[0.2869672102324499, 2.073679708649696]
