[8.163382852371747, 8.163382852371747]
[5.684888578430921, 5.684888578430921]
[4.058670783389056, 4.058670783389056]
[3.6647470160241604, 3.6647470160241604]
[3.4626753124623004, 3.4626753124623004]
[3.3357794434808388, 3.3357794434808388]
[3.2044646295663988, 3.2044646295663988]
[3.1254843984110714, 3.1254843984110714]
[3.0488360084740096, 3.0488360084740096]
[2.9909049341455867, 2.9909049341455867]
[2.935686408710686, 2.935686408710686]
[2.8834434046493658, 2.8834434046493658]
[2.8630671148094886, 2.8630671148094886]
[2.814193503349103, 2.814193503349103]
[2.7726508787109125, 2.7726508787109125]
[2.7440759695252237, 2.7440759695252237]
[2.7149980599288344, 2.7149980599288344]
[2.698805729622617, 2.698805729622617]
[2.6612018722924056, 2.6612018722924056]
[2.643608629786361, 2.643608629786361]
[2.627769615134632, 2.627769615134632]
[2.599384507378297, 2.599384507378297]
[2.5919109373075075, 2.5919109373075075]
[2.5946168449189835, 2.5946168449189835]
[2.5627033197716984, 2.5627033197716984]
[2.5486176194024424, 2.5486176194024424]
[2.523420679248521, 2.523420679248521]
[2.5108022419857954, 2.5108022419857954]
[2.517637947666592, 2.517637947666592]
[2.4923766825615945, 2.4923766825615945]
[2.4835788570860515, 2.4835788570860515]
[2.462197803323997, 2.462197803323997]
[2.4803942006814377, 2.4803942006814377]
[2.4621348542341286, 2.4621348542341286]
[2.4602948737663017, 2.4602948737663017]
[2.430458697477772, 2.430458697477772]
[2.4425736534663054, 2.4425736534663054]
[2.4225492167404528, 2.4225492167404528]
[2.417718471044804, 2.417718471044804]
[2.4148533604692846, 2.4148533604692846]
[2.412428366568005, 2.412428366568005]
[2.404266681528363, 2.404266681528363]
[2.403268536874452, 2.403268536874452]
[2.385663259022501, 2.385663259022501]
[2.382910683574748, 2.382910683574748]
[2.3834635534507536, 2.3834635534507536]
[2.368586875289164, 2.368586875289164]
[2.365188657020084, 2.365188657020084]
[2.347020255686482, 2.347020255686482]
[2.345627655064206, 2.345627655064206]
[2.3465132852282684, 2.3465132852282684]
[2.3369675443523756, 2.3369675443523756]
[2.3396250030752426, 2.3396250030752426]
[2.333744463583906, 2.333744463583906]
[2.324564071644616, 2.324564071644616]
[2.3192730480925317, 2.3192730480925317]
[2.3179665468007915, 2.3179665468007915]
[2.3089029840520943, 2.3089029840520943]
[2.3122419508582985, 2.3122419508582985]
[2.3152007878509537, 2.3152007878509537]
[2.3028178120355243, 2.3028178120355243]
[2.3210856778154265, 2.3210856778154265]
[2.3110669199841842, 2.3110669199841842]
[2.298716296169173, 2.298716296169173]
[2.27971157140958, 2.27971157140958]
[2.2986115724934097, 2.2986115724934097]
[2.2862138041062146, 2.2862138041062146]
[2.2962532246210627, 2.2962532246210627]
[2.274668286802272, 2.274668286802272]
[2.2922404875749485, 2.2922404875749485]
[2.2723574673673865, 2.2723574673673865]
[2.280766848700107, 2.280766848700107]
[2.264385250110754, 2.264385250110754]
[2.2516139918161944, 2.2516139918161944]
[2.2717225755255304, 2.2717225755255304]
[2.257456070483353, 2.257456070483353]
[2.255102634435514, 2.255102634435514]
[2.2599118451515534, 2.2599118451515534]
[2.265882875722398, 2.265882875722398]
[2.2535845662780574, 2.2535845662780574]
[2.253101624547892, 2.253101624547892]
[2.2468428071521913, 2.2468428071521913]
[2.243727664759195, 2.243727664759195]
[2.2518654648482856, 2.2518654648482856]
[2.2478989237180547, 2.2478989237180547]
[2.243737671397753, 2.243737671397753]
[2.232293239304612, 2.232293239304612]
[2.2335186039971893, 2.2335186039971893]
[2.2409423486302322, 2.2409423486302322]
[2.224469475408413, 2.224469475408413]
[2.212448701247076, 2.212448701247076]
[2.2150044886422675, 2.2150044886422675]
[2.234263332215053, 2.234263332215053]
[2.2276365833912632, 2.2276365833912632]
[2.2179369166669867, 2.2179369166669867]
[2.2256465329260853, 2.2256465329260853]
[2.2094040696771415, 2.2094040696771415]
[2.227586826746577, 2.227586826746577]
[2.2254032937353867, 2.2254032937353867]
[2.210960216857291, 2.210960216857291]
[2.2158720386142106, 2.2158720386142106]
[2.19282743037896, 2.19282743037896]
[2.195251461865325, 2.195251461865325]
[2.197226179045283, 2.197226179045283]
[2.194341659195718, 2.194341659195718]
[2.1987418477007936, 2.1987418477007936]
[2.189533466616972, 2.189533466616972]
[2.2078715068218715, 2.2078715068218715]
[2.1817000531181985, 2.1817000531181985]
[2.2015499597861634, 2.2015499597861634]
[2.1819186279329723, 2.1819186279329723]
[2.1878633795547655, 2.1878633795547655]
[2.1734745405013074, 2.1734745405013074]
[2.198552769974435, 2.198552769974435]
[2.1895458947712543, 2.1895458947712543]
[2.190746742992985, 2.190746742992985]
[2.1671475154742037, 2.1671475154742037]
[2.182318208296403, 2.182318208296403]
[2.17658981635284, 2.17658981635284]
[2.1859881357642053, 2.1859881357642053]
[2.1779263375602533, 2.1779263375602533]
[2.177747931013416, 2.177747931013416]
[2.173267447248305, 2.173267447248305]
[2.1679949771845957, 2.1679949771845957]
[2.1768535434927707, 2.1768535434927707]
[2.179551137462905, 2.179551137462905]
[2.1699638930457743, 2.1699638930457743]
[2.169750878774069, 2.169750878774069]
[2.1645657910314706, 2.1645657910314706]
[2.1628246407379277, 2.1628246407379277]
[2.1687909087652053, 2.1687909087652053]
[2.174468717171497, 2.174468717171497]
[2.1727926574957905, 2.1727926574957905]
[2.1835206532050653, 2.1835206532050653]
[2.1614943281042107, 2.1614943281042107]
[2.1482900443240713, 2.1482900443240713]
[2.145959865146143, 2.145959865146143]
[2.146441325073789, 2.146441325073789]
[2.1548675214942503, 2.1548675214942503]
[2.142724264040691, 2.142724264040691]
[2.157104167563541, 2.157104167563541]
[2.150506659230051, 2.150506659230051]
[2.1545513093768593, 2.1545513093768593]
[2.1389291744788967, 2.1389291744788967]
[2.1468788434341386, 2.1468788434341386]
[2.161913458079531, 2.161913458079531]
[2.1428547500296227, 2.1428547500296227]
[2.146071953806947, 2.146071953806947]
[2.1563669611788954, 2.1563669611788954]
[2.1530481060238826, 2.1530481060238826]
[2.1322336559844026, 2.1322336559844026]
[2.133622864420873, 2.133622864420873]
[2.1462744998386603, 2.1462744998386603]
[2.118778098672047, 2.118778098672047]
[2.1272488441025263, 2.1272488441025263]
[2.1378600869815054, 2.1378600869815054]
[2.139931404752661, 2.139931404752661]
[2.131357147092211, 2.131357147092211]
[2.1311292391229397, 2.1311292391229397]
[2.1186627987511857, 2.1186627987511857]
[2.128568492436029, 2.128568492436029]
[2.1395494704971387, 2.1395494704971387]
[2.122379378232861, 2.122379378232861]
[2.122321446908814, 2.122321446908814]
[2.1280771930369617, 2.1280771930369617]
[2.120249692301725, 2.120249692301725]
[2.1308239781728258, 2.1308239781728258]
[2.131090549905802, 2.131090549905802]
[2.1174204634985516, 2.1174204634985516]
[2.1180047243359246, 2.1180047243359246]
[2.1211291854368746, 2.1211291854368746]
[2.116052692355546, 2.116052692355546]
[2.1176304020325296, 2.1176304020325296]
[2.121071084881899, 2.121071084881899]
[2.1200291149209654, 2.1200291149209654]
[2.110706950115332, 2.110706950115332]
[2.1174493311304645, 2.1174493311304645]
[2.114330835075777, 2.114330835075777]
[2.1070454367267413, 2.1070454367267413]
[2.1089694444781264, 2.1089694444781264]
[2.1227546271787787, 2.1227546271787787]
[2.1184505666565765, 2.1184505666565765]
[2.0933626339222857, 2.0933626339222857]
[2.0996649264683334, 2.0996649264683334]
[2.0943177450772974, 2.0943177450772974]
[2.0926484057956567, 2.0926484057956567]
[2.1145491065131536, 2.1145491065131536]
[2.1093163217900965, 2.1093163217900965]
[2.100356662015952, 2.100356662015952]
[2.1068805617748727, 2.1068805617748727]
[2.1195568491858348, 2.1195568491858348]
[2.1080904741702353, 2.1080904741702353]
[2.10496734146328, 2.10496734146328]
[2.08701279367672, 2.08701279367672]
[2.100622411671857, 2.100622411671857]
[2.103353141195367, 2.103353141195367]
[2.092273125892862, 2.092273125892862]
[2.091707906974593, 2.091707906974593]
[2.1036581785680357, 2.1036581785680357]
[2.1003525832754044, 2.1003525832754044]
[2.1083960474408436, 2.1083960474408436]
[2.0889584905041705, 2.0889584905041705]
[2.0927327096273176, 2.0927327096273176]
[2.110958363985392, 2.110958363985392]
[2.0935709833365697, 2.0935709833365697]
[2.103080669769536, 2.103080669769536]
[2.0819768197079345, 2.0819768197079345]
[2.102877135869476, 2.102877135869476]
[2.0931676695737536, 2.0931676695737536]
[2.0809591206266207, 2.0809591206266207]
[2.0864715911037477, 2.0864715911037477]
[2.0916312832001887, 2.0916312832001887]
[2.078953189283462, 2.078953189283462]
[2.094299448187037, 2.094299448187037]
[2.092334154280486, 2.092334154280486]
[2.0967117525204055, 2.0967117525204055]
[2.0904984995202933, 2.0904984995202933]
[2.097480255619925, 2.097480255619925]
[2.078811663384206, 2.078811663384206]
[2.082083030001732, 2.082083030001732]
[2.0928991640678514, 2.0928991640678514]
[2.082664792275152, 2.082664792275152]
[2.086235598574026, 2.086235598574026]
[2.08847825646886, 2.08847825646886]
[2.0856101286297153, 2.0856101286297153]
[2.102870859878581, 2.102870859878581]
[2.067160990384081, 2.067160990384081]
[2.091394032445393, 2.091394032445393]
[2.0712918788234074, 2.0712918788234074]
[2.08607535408305, 2.08607535408305]
[2.075254798686942, 2.075254798686942]
[2.079665615719841, 2.079665615719841]
[2.082910713019343, 2.082910713019343]
[2.0904230885675434, 2.0904230885675434]
[2.084394227110519, 2.084394227110519]
[2.0848328399684593, 2.0848328399684593]
[2.073917331574949, 2.073917331574949]
[2.0727122243748517, 2.0727122243748517]
[2.065838743736689, 2.065838743736689]
[2.073679708649696, 2.073679708649696]
