[8.183098943466659, 8.163382852371747]
[5.629223592225756, 5.684888578430921]
[3.3739401703155854, 4.058670783389056]
[1.7757975008122093, 3.6647470160241604]
[0.9832137657852895, 3.4626753124623004]
[0.7588391499799254, 3.3357794434808388]
[0.6376922180754905, 3.2044646295663988]
[0.5652584694629944, 3.1254843984110714]
[0.4960114498180376, 3.0488360084740096]
[0.44986570789566904, 2.9909049341455867]
[0.4184030602051052, 2.935686408710686]
[0.4200573467052292, 2.8834434046493658]
[0.39409268734871133, 2.8630671148094886]
[0.38399426122018754, 2.814193503349103]
[0.3716846076282136, 2.7726508787109125]
[0.3525171993626852, 2.7440759695252237]
[0.2810766037366452, 2.7149980599288344]
[0.2557863915007552, 2.698805729622617]
[0.2365049721953472, 2.6612018722924056]
[0.21848020875094937, 2.643608629786361]
[0.1974939084442516, 2.627769615134632]
[0.18057232491909522, 2.599384507378297]
[0.18005924959272418, 2.5919109373075075]
[0.16309964822770298, 2.5946168449189835]
[0.16046596270966035, 2.5627033197716984]
[0.15054550005767015, 2.5486176194024424]
[0.15488114908481118, 2.523420679248521]
[0.14807690670558354, 2.5108022419857954]
[0.14911459797464002, 2.517637947666592]
[0.1446481371374349, 2.4923766825615945]
[0.14403897293274584, 2.4835788570860515]
[0.13992605195091173, 2.462197803323997]
[0.13397219651348638, 2.4803942006814377]
[0.1404106310849004, 2.4621348542341286]
[0.13555926589478867, 2.4602948737663017]
[0.13225927018528705, 2.430458697477772]
[0.13376277622772928, 2.4425736534663054]
[0.12863365071531557, 2.4225492167404528]
[0.13453112851996155, 2.417718471044804]
[0.1291687029522163, 2.4148533604692846]
[0.12925760381564153, 2.412428366568005]
[0.12647686018941673, 2.404266681528363]
[0.12134267236767485, 2.403268536874452]
[0.11973114213041652, 2.385663259022501]
[0.12125216170364192, 2.382910683574748]
[0.12306273113887294, 2.3834635534507536]
[0.11691666161347658, 2.368586875289164]
[0.12379649830045815, 2.365188657020084]
[0.11794270204683732, 2.347020255686482]
[0.11309991345954148, 2.345627655064206]
[0.11388442704746665, 2.3465132852282684]
[0.11501832074638639, 2.3369675443523756]
[0.1180400654885809, 2.3396250030752426]
[0.11240162580288131, 2.333744463583906]
[0.11255775373862421, 2.324564071644616]
[0.11263188963349888, 2.3192730480925317]
[0.11732227132318372, 2.3179665468007915]
[0.1145810846095663, 2.3089029840520943]
[0.11055926402027494, 2.3122419508582985]
[0.1133378537357803, 2.3152007878509537]
[0.11387298379483055, 2.3028178120355243]
[0.11007628494837642, 2.3210856778154265]
[0.10981921244064453, 2.3110669199841842]
[0.10873148191641062, 2.298716296169173]
[0.11155723445575993, 2.27971157140958]
[0.11250097263454596, 2.2986115724934097]
[0.11122272243841297, 2.2862138041062146]
[0.10943681976536676, 2.2962532246210627]
[0.10604328232659777, 2.274668286802272]
[0.11153428031831022, 2.2922404875749485]
[0.10998047562785737, 2.2723574673673865]
[0.10579332495611038, 2.280766848700107]
[0.10820181449930406, 2.264385250110754]
[0.1096034912265078, 2.2516139918161944]
[0.10598200785329823, 2.2717225755255304]
[0.10361673931308854, 2.257456070483353]
[0.10328027858182248, 2.255102634435514]
[0.1100927866192332, 2.2599118451515534]
[0.10469244167169077, 2.265882875722398]
[0.10543992034359649, 2.2535845662780574]
[0.10044829631491098, 2.253101624547892]
[0.10589049698116354, 2.2468428071521913]
[0.1061088412531934, 2.243727664759195]
[0.10142670565866516, 2.2518654648482856]
[0.10179763966736172, 2.2478989237180547]
[0.10321072909878322, 2.243737671397753]
[0.10091499052158193, 2.232293239304612]
[0.10343984109709445, 2.2335186039971893]
[0.09977157231596827, 2.2409423486302322]
[0.10275690908339923, 2.224469475408413]
[0.09875831804027507, 2.212448701247076]
[0.10007440239880172, 2.2150044886422675]
[0.10244323263521729, 2.234263332215053]
[0.10321198055204005, 2.2276365833912632]
[0.09975317868546717, 2.2179369166669867]
[0.10025207851382352, 2.2256465329260853]
[0.09822415400777472, 2.2094040696771415]
[0.09881448318848926, 2.227586826746577]
[0.09908633010231967, 2.2254032937353867]
[0.0974628361929237, 2.210960216857291]
[0.09374810004279802, 2.2158720386142106]
[0.09914711498400784, 2.19282743037896]
[0.09359798470652059, 2.195251461865325]
[0.09366536738014165, 2.197226179045283]
[0.09646667183324673, 2.194341659195718]
[0.0972044327974481, 2.1987418477007936]
[0.09641122346572567, 2.189533466616972]
[0.09677521333092835, 2.2078715068218715]
[0.0942726830723036, 2.1817000531181985]
[0.09630327444882583, 2.2015499597861634]
[0.09348830743596225, 2.1819186279329723]
[0.09372642616569916, 2.1878633795547655]
[0.09729863199489193, 2.1734745405013074]
[0.09628711637780764, 2.198552769974435]
[0.09776926656057032, 2.1895458947712543]
[0.09736951720268698, 2.190746742992985]
[0.09308652300737126, 2.1671475154742037]
[0.0909614259173257, 2.182318208296403]
[0.0937754669540992, 2.17658981635284]
[0.09454532484695062, 2.1859881357642053]
[0.09499712610848098, 2.1779263375602533]
[0.09195559527825264, 2.177747931013416]
[0.09427024478827098, 2.173267447248305]
[0.09293572810314679, 2.1679949771845957]
[0.0901883402755807, 2.1768535434927707]
[0.09189936843126247, 2.179551137462905]
[0.0926889480476406, 2.1699638930457743]
[0.09732686302227349, 2.169750878774069]
[0.08893960830023072, 2.1645657910314706]
[0.09147468398601222, 2.1628246407379277]
[0.09610092009177729, 2.1687909087652053]
[0.09137030665106091, 2.174468717171497]
[0.09358617872097598, 2.1727926574957905]
[0.09219828251213144, 2.1835206532050653]
[0.08933894111613366, 2.1614943281042107]
[0.09198203434315244, 2.1482900443240713]
[0.09380933865771483, 2.145959865146143]
[0.08926695300509647, 2.146441325073789]
[0.09129757578995032, 2.1548675214942503]
[0.09288936035509777, 2.142724264040691]
[0.09260908519498572, 2.157104167563541]
[0.08942561406255502, 2.150506659230051]
[0.09131786909781718, 2.1545513093768593]
[0.09405339888284002, 2.1389291744788967]
[0.09172317603206749, 2.1468788434341386]
[0.08775237757880326, 2.161913458079531]
[0.08932973843197516, 2.1428547500296227]
[0.09022892723527974, 2.146071953806947]
[0.09211760506365071, 2.1563669611788954]
[0.09387514229412482, 2.1530481060238826]
[0.09159780510814175, 2.1322336559844026]
[0.0904856568740993, 2.133622864420873]
[0.09160867522859388, 2.1462744998386603]
[0.08890299029165478, 2.118778098672047]
[0.08858423971033748, 2.1272488441025263]
[0.088512420540008, 2.1378600869815054]
[0.09016346537139268, 2.139931404752661]
[0.0877635019218601, 2.131357147092211]
[0.0906041557367597, 2.1311292391229397]
[0.08867333379627093, 2.1186627987511857]
[0.08955752532545933, 2.128568492436029]
[0.09075020729497986, 2.1395494704971387]
[0.09203998333841705, 2.122379378232861]
[0.09056399686337648, 2.122321446908814]
[0.09016775889677363, 2.1280771930369617]
[0.09015672328601573, 2.120249692301725]
[0.08858817165294391, 2.1308239781728258]
[0.08720413773373221, 2.131090549905802]
[0.0878886773767542, 2.1174204634985516]
[0.08937813361900168, 2.1180047243359246]
[0.08996450446852179, 2.1211291854368746]
[0.09020589903780103, 2.116052692355546]
[0.08894220994628381, 2.1176304020325296]
[0.08842039670811927, 2.121071084881899]
[0.0881164406441217, 2.1200291149209654]
[0.08719498382815304, 2.110706950115332]
[0.09056884073324019, 2.1174493311304645]
[0.09235571558121607, 2.114330835075777]
[0.08579355604583645, 2.1070454367267413]
[0.08647678167691236, 2.1089694444781264]
[0.08569431012499219, 2.1227546271787787]
[0.08694976930921983, 2.1184505666565765]
[0.08719649512569749, 2.0933626339222857]
[0.08808750787378007, 2.0996649264683334]
[0.0885570765554819, 2.0943177450772974]
[0.08714871054157503, 2.0926484057956567]
[0.0890425074120511, 2.1145491065131536]
[0.08705582492612067, 2.1093163217900965]
[0.08740741535814407, 2.100356662015952]
[0.08906294097176977, 2.1068805617748727]
[0.08532277125331256, 2.1195568491858348]
[0.08654586030370032, 2.1080904741702353]
[0.08591107333901485, 2.10496734146328]
[0.08442424143378148, 2.08701279367672]
[0.08852212017878511, 2.100622411671857]
[0.08877458806601846, 2.103353141195367]
[0.08725422909965286, 2.092273125892862]
[0.08717644018578473, 2.091707906974593]
[0.08602648132947392, 2.1036581785680357]
[0.08705879106790443, 2.1003525832754044]
[0.08859805348584177, 2.1083960474408436]
[0.08737434652328725, 2.0889584905041705]
[0.08723378952054144, 2.0927327096273176]
[0.08355815506644411, 2.110958363985392]
[0.08524395001358259, 2.0935709833365697]
[0.0866830779515611, 2.103080669769536]
[0.0868671060308142, 2.0819768197079345]
[0.08545911125220812, 2.102877135869476]
[0.08173262480666994, 2.0931676695737536]
[0.08524104456017674, 2.0809591206266207]
[0.08570185145674337, 2.0864715911037477]
[0.08319425691098999, 2.0916312832001887]
[0.08332113850902308, 2.078953189283462]
[0.08510520337546215, 2.094299448187037]
[0.0823203435594673, 2.092334154280486]
[0.08521736297910956, 2.0967117525204055]
[0.08419669168287501, 2.0904984995202933]
[0.08855548155613104, 2.097480255619925]
[0.08527804243543277, 2.078811663384206]
[0.08612501528513927, 2.082083030001732]
[0.08460747365256878, 2.0928991640678514]
[0.0867179330842211, 2.082664792275152]
[0.0859150558122739, 2.086235598574026]
[0.08253756858990317, 2.08847825646886]
[0.08318398496769543, 2.0856101286297153]
[0.08720204719861964, 2.102870859878581]
[0.08612313783653112, 2.067160990384081]
[0.08426250496106237, 2.091394032445393]
[0.08439029288616766, 2.0712918788234074]
[0.08524549783594253, 2.08607535408305]
[0.08780925056461274, 2.075254798686942]
[0.08484716116505121, 2.079665615719841]
[0.08449867381599731, 2.082910713019343]
[0.08579082261807712, 2.0904230885675434]
[0.08452433981888145, 2.084394227110519]
[0.08534587299487234, 2.0848328399684593]
[0.08485045334294535, 2.073917331574949]
[0.08548846028505835, 2.0727122243748517]
[0.08562725260607042, 2.065838743736689]
[0.08295337622587155, 2.073679708649696]
