[8.167373537802368, 8.163382852371747]
[5.508742350042371, 5.684888578430921]
[4.027999684989175, 4.058670783389056]
[3.8247398509786485, 3.6647470160241604]
[3.720453853175517, 3.4626753124623004]
[3.6511168970091097, 3.3357794434808388]
[3.6036302100555906, 3.2044646295663988]
[3.5582101546899567, 3.1254843984110714]
[3.5188449673098794, 3.0488360084740096]
[3.490241434707643, 2.9909049341455867]
[3.4607056089205805, 2.935686408710686]
[3.420546442306946, 2.8834434046493658]
[3.3850833156337083, 2.8630671148094886]
[3.3398051941101783, 2.814193503349103]
[3.2902240377689758, 2.7726508787109125]
[3.2197312453681506, 2.7440759695252237]
[3.148348779835107, 2.7149980599288344]
[3.044125890721744, 2.698805729622617]
[2.9218843441930247, 2.6612018722924056]
[2.7883351488768398, 2.643608629786361]
[2.679709711656432, 2.627769615134632]
[2.567196940947543, 2.599384507378297]
[2.4655724503388803, 2.5919109373075075]
[2.368449712245795, 2.5946168449189835]
[2.275960704778698, 2.5627033197716984]
[2.2024521092278073, 2.5486176194024424]
[2.128847768871389, 2.523420679248521]
[2.069018211080761, 2.5108022419857954]
[1.9913433695213185, 2.517637947666592]
[1.920865441924973, 2.4923766825615945]
[1.8629675705671256, 2.4835788570860515]
[1.8055517755227448, 2.462197803323997]
[1.7479121312996535, 2.4803942006814377]
[1.6923975363554313, 2.4621348542341286]
[1.6356902486067812, 2.4602948737663017]
[1.5766709881075889, 2.430458697477772]
[1.535100868603005, 2.4425736534663054]
[1.4841776590604412, 2.4225492167404528]
[1.4377187122233235, 2.417718471044804]
[1.4097852917900127, 2.4148533604692846]
[1.3531694417133817, 2.412428366568005]
[1.3200636403036496, 2.404266681528363]
[1.2816082373630184, 2.403268536874452]
[1.2374818337773477, 2.385663259022501]
[1.197622009158916, 2.382910683574748]
[1.1744743912270008, 2.3834635534507536]
[1.1355514176776078, 2.368586875289164]
[1.1057985133248345, 2.365188657020084]
[1.067566467692532, 2.347020255686482]
[1.0423569844999179, 2.345627655064206]
[1.0067003687453269, 2.3465132852282684]
[0.9954491564087077, 2.3369675443523756]
[0.9735914021668881, 2.3396250030752426]
[0.9431523183380147, 2.333744463583906]
[0.9317652744477095, 2.324564071644616]
[0.9033323200860086, 2.3192730480925317]
[0.8855459472544208, 2.3179665468007915]
[0.8768870730978503, 2.3089029840520943]
[0.8517214296588024, 2.3122419508582985]
[0.8290097882627723, 2.3152007878509537]
[0.8096749090962481, 2.3028178120355243]
[0.8032403269792091, 2.3210856778154265]
[0.7784010428059353, 2.3110669199841842]
[0.7575547138903083, 2.298716296169173]
[0.7440349482311142, 2.27971157140958]
[0.7343887245996452, 2.2986115724934097]
[0.7248560636922807, 2.2862138041062146]
[0.6934339708866515, 2.2962532246210627]
[0.6913397911177515, 2.274668286802272]
[0.6679413762175452, 2.2922404875749485]
[0.6666302702623109, 2.2723574673673865]
[0.6567292204530065, 2.280766848700107]
[0.6493965304866192, 2.264385250110754]
[0.6314553741291682, 2.2516139918161944]
[0.622757155329577, 2.2717225755255304]
[0.6264579896275834, 2.257456070483353]
[0.6111226191176171, 2.255102634435514]
[0.5903754497230501, 2.2599118451515534]
[0.5840627415637012, 2.265882875722398]
[0.586877354421291, 2.2535845662780574]
[0.5651351714889552, 2.253101624547892]
[0.5532902411609756, 2.2468428071521913]
[0.563284407364954, 2.243727664759195]
[0.5468791332999181, 2.2518654648482856]
[0.5412236413624028, 2.2478989237180547]
[0.5287149978239878, 2.243737671397753]
[0.5182741464123856, 2.232293239304612]
[0.5139987128323757, 2.2335186039971893]
[0.5172222565781414, 2.2409423486302322]
[0.4924624089555267, 2.224469475408413]
[0.4973227351511768, 2.212448701247076]
[0.49179180706600245, 2.2150044886422675]
[0.47645192123752905, 2.234263332215053]
[0.4765704468649895, 2.2276365833912632]
[0.46187793890481577, 2.2179369166669867]
[0.45356784109264603, 2.2256465329260853]
[0.4661240176260631, 2.2094040696771415]
[0.44898754607821983, 2.227586826746577]
[0.4434815539295768, 2.2254032937353867]
[0.43997737456956076, 2.210960216857291]
[0.43044593456703467, 2.2158720386142106]
[0.4286525841852929, 2.19282743037896]
[0.42993890976230364, 2.195251461865325]
[0.415076689150276, 2.197226179045283]
[0.4073027767471956, 2.194341659195718]
[0.4160483689418889, 2.1987418477007936]
[0.39854451725634443, 2.189533466616972]
[0.40117328299568067, 2.2078715068218715]
[0.3880312283000426, 2.1817000531181985]
[0.39080646272002095, 2.2015499597861634]
[0.38720666169405576, 2.1819186279329723]
[0.3903044717614893, 2.1878633795547655]
[0.375675406911349, 2.1734745405013074]
[0.3697640354882531, 2.198552769974435]
[0.3683950167830979, 2.1895458947712543]
[0.35988025531683504, 2.190746742992985]
[0.35648506940285973, 2.1671475154742037]
[0.34799394871478023, 2.182318208296403]
[0.34442638944835496, 2.17658981635284]
[0.34862913292714237, 2.1859881357642053]
[0.3409460558268463, 2.1779263375602533]
[0.3441034312254929, 2.177747931013416]
[0.3352128880970515, 2.173267447248305]
[0.3319963172158825, 2.1679949771845957]
[0.3339626541112202, 2.1768535434927707]
[0.3335038338937429, 2.179551137462905]
[0.3143803892522849, 2.1699638930457743]
[0.3249227478341228, 2.169750878774069]
[0.313064167630105, 2.1645657910314706]
[0.3140907741228633, 2.1628246407379277]
[0.30585380943922447, 2.1687909087652053]
[0.3080831153319724, 2.174468717171497]
[0.2993401627700002, 2.1727926574957905]
[0.2889377356362624, 2.1835206532050653]
[0.29650257505105126, 2.1614943281042107]
[0.30069124050299145, 2.1482900443240713]
[0.29653613978713295, 2.145959865146143]
[0.2839737092765998, 2.146441325073789]
[0.2827758447818783, 2.1548675214942503]
[0.28299925656571145, 2.142724264040691]
[0.27514745812156083, 2.157104167563541]
[0.2730353973164507, 2.150506659230051]
[0.27426215425158235, 2.1545513093768593]
[0.265442708063077, 2.1389291744788967]
[0.2664453334239859, 2.1468788434341386]
[0.2657983082061119, 2.161913458079531]
[0.26152328661054214, 2.1428547500296227]
[0.2559425984410283, 2.146071953806947]
[0.2551711204716058, 2.1563669611788954]
[0.24824471372048426, 2.1530481060238826]
[0.24749362313343862, 2.1322336559844026]
[0.2484408387799273, 2.133622864420873]
[0.2528963354436681, 2.1462744998386603]
[0.23798311857900215, 2.118778098672047]
[0.23954182580690048, 2.1272488441025263]
[0.24463051847756817, 2.1378600869815054]
[0.23546010282189817, 2.139931404752661]
[0.2357019504149776, 2.131357147092211]
[0.2326843343527932, 2.1311292391229397]
[0.23228379785181472, 2.1186627987511857]
[0.22718767002718493, 2.128568492436029]
[0.21839933244752865, 2.1395494704971387]
[0.22304586679491287, 2.122379378232861]
[0.22056126564164924, 2.122321446908814]
[0.22408139355481904, 2.1280771930369617]
[0.21168021836329257, 2.120249692301725]
[0.21018654792266184, 2.1308239781728258]
[0.20911454557731246, 2.131090549905802]
[0.20412004488081725, 2.1174204634985516]
[0.20564452549740214, 2.1180047243359246]
[0.2132341446024839, 2.1211291854368746]
[0.20260459111762824, 2.116052692355546]
[0.20452755962085017, 2.1176304020325296]
[0.19964967881206125, 2.121071084881899]
[0.20084284362287405, 2.1200291149209654]
[0.20092443709394892, 2.110706950115332]
[0.1904400905390172, 2.1174493311304645]
[0.19076779896569174, 2.114330835075777]
[0.19143392595263184, 2.1070454367267413]
[0.18641388742332304, 2.1089694444781264]
[0.1869784388124304, 2.1227546271787787]
[0.1872349413696573, 2.1184505666565765]
[0.18431978981913458, 2.0933626339222857]
[0.18229052266602833, 2.0996649264683334]
[0.18139555496191084, 2.0943177450772974]
[0.16984601089917645, 2.0926484057956567]
[0.17697730604271997, 2.1145491065131536]
[0.1727297701769654, 2.1093163217900965]
[0.1697256905897586, 2.100356662015952]
[0.1703711845815986, 2.1068805617748727]
[0.16901672824943118, 2.1195568491858348]
[0.17103360162328782, 2.1080904741702353]
[0.16507117136736663, 2.10496734146328]
[0.16952104566027668, 2.08701279367672]
[0.16159615261170893, 2.100622411671857]
[0.1621073604644656, 2.103353141195367]
[0.16042842358350423, 2.092273125892862]
[0.1589440115494109, 2.091707906974593]
[0.1620094277601477, 2.1036581785680357]
[0.16121114257546332, 2.1003525832754044]
[0.15362867173578418, 2.1083960474408436]
[0.15290228069511613, 2.0889584905041705]
[0.15115257540407753, 2.0927327096273176]
[0.15696615104254347, 2.110958363985392]
[0.14596414930624388, 2.0935709833365697]
[0.15357804339703185, 2.103080669769536]
[0.14552369741632015, 2.0819768197079345]
[0.14480998635553058, 2.102877135869476]
[0.14816261737682654, 2.0931676695737536]
[0.1469285856185591, 2.0809591206266207]
[0.14694745594197273, 2.0864715911037477]
[0.1413659913137859, 2.0916312832001887]
[0.15075583737641943, 2.078953189283462]
[0.14498157860577596, 2.094299448187037]
[0.1403864086183962, 2.092334154280486]
[0.1398849705195936, 2.0967117525204055]
[0.13880567894756138, 2.0904984995202933]
[0.1374942376261579, 2.097480255619925]
[0.14008654181813496, 2.078811663384206]
[0.13702619662334803, 2.082083030001732]
[0.1355698495566379, 2.0928991640678514]
[0.13611937297272583, 2.082664792275152]
[0.13355207652003678, 2.086235598574026]
[0.13636418475128642, 2.08847825646886]
[0.13174016598559218, 2.0856101286297153]
[0.13182915462466283, 2.102870859878581]
[0.13114240328475069, 2.067160990384081]
[0.12684704738494978, 2.091394032445393]
[0.1294765181241677, 2.0712918788234074]
[0.1288957601649346, 2.08607535408305]
[0.13155856438806224, 2.075254798686942]
[0.12513547217395343, 2.079665615719841]
[0.1284859833585927, 2.082910713019343]
[0.12654901142599825, 2.0904230885675434]
[0.12705517655395115, 2.084394227110519]
[0.12481010486111381, 2.0848328399684593]
[0.12399253514355016, 2.073917331574949]
[0.1261471208196182, 2.0727122243748517]
[0.12105632948765771, 2.065838743736689]
[0.12410630307520384, 2.073679708649696]
