[8.159802861511388, 8.163382852371747]
[5.508349102768076, 5.684888578430921]
[4.028127462595321, 4.058670783389056]
[3.824958359752084, 3.6647470160241604]
[3.7199400130422977, 3.4626753124623004]
[3.649401694769998, 3.3357794434808388]
[3.601622122737921, 3.2044646295663988]
[3.555506057711829, 3.1254843984110714]
[3.5158496610521435, 3.0488360084740096]
[3.4830728153302655, 2.9909049341455867]
[3.4524681118646456, 2.935686408710686]
[3.407937890606992, 2.8834434046493658]
[3.364091592069094, 2.8630671148094886]
[3.3094406554733915, 2.814193503349103]
[3.2562644494709185, 2.7726508787109125]
[3.1809006956392967, 2.7440759695252237]
[3.095499378705457, 2.7149980599288344]
[2.9795766742693117, 2.698805729622617]
[2.8494974648944806, 2.6612018722924056]
[2.7234274235817937, 2.643608629786361]
[2.620952617726596, 2.627769615134632]
[2.5193667172730643, 2.599384507378297]
[2.433639223547043, 2.5919109373075075]
[2.348711336326914, 2.5946168449189835]
[2.2613135519112273, 2.5627033197716984]
[2.192726557050784, 2.5486176194024424]
[2.1350276462303444, 2.523420679248521]
[2.0521252984393645, 2.5108022419857954]
[1.9950258482829804, 2.517637947666592]
[1.9418217164255915, 2.4923766825615945]
[1.881790422985501, 2.4835788570860515]
[1.819275348534413, 2.462197803323997]
[1.7776482494577721, 2.4803942006814377]
[1.7070081938164585, 2.4621348542341286]
[1.6693801832427588, 2.4602948737663017]
[1.6092602829650828, 2.430458697477772]
[1.5731196134405059, 2.4425736534663054]
[1.516146799613397, 2.4225492167404528]
[1.471846560435783, 2.417718471044804]
[1.4268636196152351, 2.4148533604692846]
[1.3849003054630467, 2.412428366568005]
[1.3426391238949047, 2.404266681528363]
[1.3033135007796934, 2.403268536874452]
[1.2719147578865893, 2.385663259022501]
[1.2217764651237775, 2.382910683574748]
[1.1956323508141817, 2.3834635534507536]
[1.153865739411161, 2.368586875289164]
[1.1197608061671025, 2.365188657020084]
[1.1006080855209275, 2.347020255686482]
[1.0615646687375169, 2.345627655064206]
[1.0325231451666055, 2.3465132852282684]
[1.0185822968410734, 2.3369675443523756]
[0.982192647688877, 2.3396250030752426]
[0.9756199358139884, 2.333744463583906]
[0.9594858457126595, 2.324564071644616]
[0.917297713603489, 2.3192730480925317]
[0.9073376501833155, 2.3179665468007915]
[0.8858776395302155, 2.3089029840520943]
[0.8714894082634452, 2.3122419508582985]
[0.8413653932112997, 2.3152007878509537]
[0.8251153298770316, 2.3028178120355243]
[0.8237505918200566, 2.3210856778154265]
[0.8057397965915833, 2.3110669199841842]
[0.7886554031102481, 2.298716296169173]
[0.7634524322126915, 2.27971157140958]
[0.7617398002542971, 2.2986115724934097]
[0.7374395508126809, 2.2862138041062146]
[0.7282030541770785, 2.2962532246210627]
[0.7183951960908491, 2.274668286802272]
[0.6983225916680216, 2.2922404875749485]
[0.6952957324412623, 2.2723574673673865]
[0.6737060353465743, 2.280766848700107]
[0.6622637767701748, 2.264385250110754]
[0.6581763369958664, 2.2516139918161944]
[0.6355672318282634, 2.2717225755255304]
[0.6371863420288758, 2.257456070483353]
[0.6196347335989005, 2.255102634435514]
[0.6119491620622364, 2.2599118451515534]
[0.6011232070988222, 2.265882875722398]
[0.5975126335955548, 2.2535845662780574]
[0.5784886755001676, 2.253101624547892]
[0.5824948176995517, 2.2468428071521913]
[0.5690640453229598, 2.243727664759195]
[0.5608755158553095, 2.2518654648482856]
[0.5526001253459624, 2.2478989237180547]
[0.530504028775462, 2.243737671397753]
[0.5285534810913518, 2.232293239304612]
[0.5102680621601634, 2.2335186039971893]
[0.5163643760727691, 2.2409423486302322]
[0.5032046206647303, 2.224469475408413]
[0.5061364777930403, 2.212448701247076]
[0.4895864886684619, 2.2150044886422675]
[0.485697439653039, 2.234263332215053]
[0.47141198083286673, 2.2276365833912632]
[0.46559619616324177, 2.2179369166669867]
[0.45089260908069956, 2.2256465329260853]
[0.4498690560539161, 2.2094040696771415]
[0.44211583901114465, 2.227586826746577]
[0.43923218629810573, 2.2254032937353867]
[0.4376382119638561, 2.210960216857291]
[0.42378008909920706, 2.2158720386142106]
[0.4304279388183964, 2.19282743037896]
[0.4248434156937423, 2.195251461865325]
[0.4189262248936891, 2.197226179045283]
[0.4110207906501706, 2.194341659195718]
[0.4109582079693394, 2.1987418477007936]
[0.3949963177329614, 2.189533466616972]
[0.38446068694044266, 2.2078715068218715]
[0.38102658165354664, 2.1817000531181985]
[0.39191160061874675, 2.2015499597861634]
[0.3754797922104225, 2.1819186279329723]
[0.37737088506217253, 2.1878633795547655]
[0.3740890534723245, 2.1734745405013074]
[0.3649767979636187, 2.198552769974435]
[0.3565015078915902, 2.1895458947712543]
[0.34906321438619775, 2.190746742992985]
[0.3498920500315355, 2.1671475154742037]
[0.3496265361638448, 2.182318208296403]
[0.3468284762924353, 2.17658981635284]
[0.3406941087245776, 2.1859881357642053]
[0.3294394200166453, 2.1779263375602533]
[0.3276000746807481, 2.177747931013416]
[0.32194679787977587, 2.173267447248305]
[0.3319922177514252, 2.1679949771845957]
[0.31246583113064674, 2.1768535434927707]
[0.31703519497077975, 2.179551137462905]
[0.3111229120396342, 2.1699638930457743]
[0.31250497906851044, 2.169750878774069]
[0.3058083055385329, 2.1645657910314706]
[0.3113639815832011, 2.1628246407379277]
[0.2963374159838441, 2.1687909087652053]
[0.29862635655980907, 2.174468717171497]
[0.28892473284494824, 2.1727926574957905]
[0.2891456068527853, 2.1835206532050653]
[0.2935549680955406, 2.1614943281042107]
[0.2887328013244726, 2.1482900443240713]
[0.28834290590605094, 2.145959865146143]
[0.2813148789061009, 2.146441325073789]
[0.28256030258018316, 2.1548675214942503]
[0.2777550829795313, 2.142724264040691]
[0.2676222460462749, 2.157104167563541]
[0.2656928322782336, 2.150506659230051]
[0.2709869049537308, 2.1545513093768593]
[0.2555303387856494, 2.1389291744788967]
[0.26238929183431503, 2.1468788434341386]
[0.25955339792949883, 2.161913458079531]
[0.2657450604855955, 2.1428547500296227]
[0.25304769036639935, 2.146071953806947]
[0.25182607407869334, 2.1563669611788954]
[0.2534606603101263, 2.1530481060238826]
[0.2479474097626905, 2.1322336559844026]
[0.24003236143101475, 2.133622864420873]
[0.2432264155696109, 2.1462744998386603]
[0.23760332512052248, 2.118778098672047]
[0.2364069723962976, 2.1272488441025263]
[0.24298431890265731, 2.1378600869815054]
[0.24211593279406157, 2.139931404752661]
[0.23841731290167206, 2.131357147092211]
[0.2294276713060117, 2.1311292391229397]
[0.23475958996770982, 2.1186627987511857]
[0.22845610080937342, 2.128568492436029]
[0.21985679714349537, 2.1395494704971387]
[0.22422300316663057, 2.122379378232861]
[0.22415147579711503, 2.122321446908814]
[0.21490516518651956, 2.1280771930369617]
[0.226626192032542, 2.120249692301725]
[0.22983093162521892, 2.1308239781728258]
[0.21878324136485208, 2.131090549905802]
[0.2129875423770387, 2.1174204634985516]
[0.2128560838692117, 2.1180047243359246]
[0.21464583168737028, 2.1211291854368746]
[0.21037993746905584, 2.116052692355546]
[0.21847243148049908, 2.1176304020325296]
[0.20627821414863245, 2.121071084881899]
[0.20954855669546357, 2.1200291149209654]
[0.21085527120269507, 2.110706950115332]
[0.2104702782357276, 2.1174493311304645]
[0.20461671252485025, 2.114330835075777]
[0.20106544257370362, 2.1070454367267413]
[0.19798115468518984, 2.1089694444781264]
[0.20211101112112193, 2.1227546271787787]
[0.19281061435308933, 2.1184505666565765]
[0.1964091480818959, 2.0933626339222857]
[0.1944634853285076, 2.0996649264683334]
[0.19786717189346065, 2.0943177450772974]
[0.1952700203059755, 2.0926484057956567]
[0.1907762058216312, 2.1145491065131536]
[0.1949237918845472, 2.1093163217900965]
[0.19043331078943973, 2.100356662015952]
[0.1902040105561171, 2.1068805617748727]
[0.1822537519153606, 2.1195568491858348]
[0.18509945747340423, 2.1080904741702353]
[0.18241441105650796, 2.10496734146328]
[0.18834226669422163, 2.08701279367672]
[0.18481842711597438, 2.100622411671857]
[0.18217625799473433, 2.103353141195367]
[0.17912093176964755, 2.092273125892862]
[0.17789730822942762, 2.091707906974593]
[0.17872300585782, 2.1036581785680357]
[0.17805322492747963, 2.1003525832754044]
[0.17451215870700867, 2.1083960474408436]
[0.17066825849109898, 2.0889584905041705]
[0.17152264847958493, 2.0927327096273176]
[0.175144113300166, 2.110958363985392]
[0.16849301141054668, 2.0935709833365697]
[0.16718281694186407, 2.103080669769536]
[0.1670733082143036, 2.0819768197079345]
[0.16979091015158843, 2.102877135869476]
[0.17380575910165963, 2.0931676695737536]
[0.16319092311814284, 2.0809591206266207]
[0.17099495636921483, 2.0864715911037477]
[0.16520563995854468, 2.0916312832001887]
[0.16256885322784387, 2.078953189283462]
[0.16009997879161225, 2.094299448187037]
[0.16785777388356268, 2.092334154280486]
[0.1643446978610175, 2.0967117525204055]
[0.16288215647367343, 2.0904984995202933]
[0.15960705503790593, 2.097480255619925]
[0.1584866455742336, 2.078811663384206]
[0.16033974380377675, 2.082083030001732]
[0.15675144226877455, 2.0928991640678514]
[0.15398101652670992, 2.082664792275152]
[0.1563803390291495, 2.086235598574026]
[0.15200427470249286, 2.08847825646886]
[0.15108090109688468, 2.0856101286297153]
[0.16008430480876057, 2.102870859878581]
[0.15686725046286215, 2.067160990384081]
[0.15088358819626782, 2.091394032445393]
[0.14665962833573065, 2.0712918788234074]
[0.151185855637859, 2.08607535408305]
[0.15005858382994108, 2.075254798686942]
[0.14949717129619466, 2.079665615719841]
[0.14547157923485904, 2.082910713019343]
[0.15043618294028055, 2.0904230885675434]
[0.14822966975776666, 2.084394227110519]
[0.14846516222643355, 2.0848328399684593]
[0.14646245572996128, 2.073917331574949]
[0.14379387680236994, 2.0727122243748517]
[0.14007781086088994, 2.065838743736689]
[0.14454338282726187, 2.073679708649696]
