[0.0984125036670787]
[0.10818082812285205]
[0.10333451539606171]
[0.10664136035762958]
[0.10494959021725217]
[0.10553220221395501]
[0.1011295055031501]
[0.10820160661527484]
[0.10929123898815549]
[0.10599443766291321]
[0.10819814565790671]
[0.11024093290464307]
[0.10225466578332311]
[0.10285806328074176]
[0.10537301277204844]
[0.10221647320908504]
[0.10486407951883642]
[0.1028144681724965]
[0.10749179311131048]
[0.10500992535355942]
[0.0984678663012483]
[0.10283937321664408]
[0.09811212766918388]
[0.1043946212714943]
[0.10360282920580195]
[0.10048516589110945]
[0.10046366937111931]
[0.10281052725454545]
[0.1015924119961652]
[0.10178478396420974]
[0.10356943275474416]
[0.09966898300939558]
[0.09581477284202547]
[0.10695707631582134]
[0.09844951405407255]
[0.09566092488028505]
[0.0995307310363747]
[0.10097883345903184]
[0.10869913025995681]
[0.09925440081430813]
[0.10059945597284008]
[0.09968626264377355]
[0.10230889116071605]
[0.09870359859972186]
[0.10121585793840375]
[0.09956135228938683]
[0.09958751736442598]
[0.10125652570845087]
[0.10124342586517704]
[0.09711531276363221]
[0.09888626322201674]
[0.0970230068372004]
[0.09800999979206347]
[0.09762066060853036]
[0.09344364573431199]
[0.10036298109627577]
[0.10198844040190796]
[0.09715898254459471]
[0.10280257879686402]
[0.10218456576232057]
[0.10166210104312566]
[0.1022682547775027]
[0.10060667507359705]
[0.09779888001674622]
[0.09478755669226774]
[0.10115675197285112]
[0.09661133162186479]
[0.09883725824900375]
[0.09550985663113488]
[0.09873975528633469]
[0.10046163094674995]
[0.09488473323186548]
[0.09961264878073778]
[0.10059435892301646]
[0.10354120317846624]
[0.09861574799134981]
[0.09661718423446931]
[0.10066053092476676]
[0.09854848705994772]
[0.0979921522924702]
[0.09278114706535708]
