[8.186727089469262]
[5.373204204949974]
[0.870451652737371]
[0.39461293942511155]
[0.3302557067758803]
[0.3066563047806997]
[0.2788568257257507]
[0.26676438441599865]
[0.2545336771381375]
[0.24739438278053272]
[0.24100203237927428]
[0.23249823923555724]
[0.22768260999800083]
[0.22101379340089247]
[0.21875167919475705]
[0.21421260515407237]
[0.21036700398675]
[0.20889798166968432]
[0.20282915213253017]
[0.20014347088467394]
[0.19577157361165637]
[0.19793276358275128]
[0.1954621720502356]
[0.194740869288276]
[0.1949506264665483]
[0.1911115523417958]
[0.19087818048370753]
[0.18817344209628312]
[0.1886193508882296]
[0.1867194607369269]
[0.1857766294871524]
[0.18561526323933605]
[0.18308293638451004]
[0.18513933315585496]
[0.18150717514197381]
[0.180519399322084]
[0.18219454374911767]
[0.17915010952927532]
[0.1811477464501525]
[0.17804562176796546]
[0.18020181203141714]
[0.17781596095151747]
[0.17875561503679563]
[0.17539567172164378]
[0.17771595837150295]
[0.17313287581927597]
[0.17064972490971572]
[0.16983866453125782]
[0.16616827597796846]
[0.16578093458790344]
[0.16531034086810462]
[0.16385163226461988]
[0.15144721906973424]
[0.11409486710435203]
[0.09470484266823118]
[0.0916950034465405]
[0.0898983522232785]
[0.09016692994039649]
[0.08954401632471018]
[0.08851065044082074]
[0.08776547577749297]
[0.08892021897617244]
[0.08877550761425695]
[0.08551938042241986]
[0.08762481628383614]
[0.08681955629975038]
[0.08612072818760987]
[0.08716894868600664]
[0.08581671615400838]
[0.08740264449491565]
[0.08762911602209036]
[0.08511443273842938]
[0.08479431992553024]
[0.08505423158735607]
[0.08708687258861779]
[0.08419745856426412]
[0.08462310154407005]
[0.08644251013513131]
[0.08539269909818373]
[0.08421764199671491]
[0.0841262959269554]
[0.08435646280235355]
[0.0846426458029989]
[0.08421133242620707]
[0.08354054905199047]
[0.08271701375071848]
[0.08123048449195497]
[0.0844473386715456]
[0.08068594229537529]
[0.08431416283095843]
[0.08219910013317093]
[0.08246690375637737]
[0.08255262622992984]
[0.08382753883399993]
[0.08369437171078335]
[0.08221540408847273]
[0.08138555419694929]
[0.08154580011753117]
[0.08178980513622545]
[0.08448931869071663]
[0.08052661984638611]
[0.08305366064245519]
[0.08152514902125702]
[0.0811542737446357]
[0.08172195121939212]
[0.08216672328125878]
[0.08040585582172903]
[0.08176069578269704]
[0.08022051508489324]
[0.08234937289806737]
[0.08141492625397687]
[0.07993059338564751]
[0.0807566221558852]
[0.08216115074240118]
[0.07902979329838482]
[0.08180980655728705]
[0.07934733397100441]
[0.07891138254458624]
[0.08184299006157633]
[0.08042649365384125]
[0.08009817767695475]
[0.08015773438753745]
[0.0799938996512354]
[0.07864984848442352]
[0.07917583448390136]
[0.07910594301336084]
[0.07941416399987475]
[0.07919825200323362]
[0.07769581842310433]
[0.07787489685241451]
[0.08119546450317518]
[0.0789719561025922]
[0.07970404224125437]
[0.07990588682022794]
[0.07800883232962164]
[0.07921227039509676]
[0.07938617306027382]
[0.07925261814842631]
[0.0785287581656821]
[0.0803587008875892]
[0.0798380794569484]
[0.07740345534413828]
[0.08018744413250004]
[0.07867537652497494]
[0.07945056556828456]
[0.07834543933213224]
[0.0790925999113763]
[0.07716965130439729]
[0.07950851168283976]
[0.07825512893114732]
[0.0775556706315784]
[0.0788612170111474]
[0.07895042297179523]
[0.07679141451463523]
[0.0767665555295913]
[0.07732333379732972]
[0.07721628086378549]
[0.07671452051249084]
[0.07815458292895171]
[0.0775348202826543]
[0.07745586849734343]
[0.07760718425102603]
[0.0773449034206954]
[0.07809756555295792]
[0.07835028742631983]
[0.07781572313644636]
[0.07659040591108075]
[0.07546774505477272]
[0.07707628649153304]
[0.07718127576225393]
[0.07896289457319437]
[0.07803037476897956]
[0.07559334899369255]
[0.07694866725991042]
[0.07709464559651698]
[0.07692972679982198]
[0.07841481505894958]
[0.07906026118586806]
[0.07583228156683118]
[0.07411345767406197]
[0.07542010591422832]
[0.07617769997147177]
[0.07489925367212114]
[0.07737344140486199]
[0.07628975907275759]
[0.07350552002814101]
[0.07584318011816527]
[0.0740590068166648]
[0.07677248204099112]
[0.07587913874525778]
[0.07561889052413315]
[0.0758903716631119]
[0.07476888794205772]
[0.07602092512298765]
[0.07525986054184111]
[0.07533934039988145]
[0.07567119319998293]
[0.07564699925035208]
[0.07599555545695984]
[0.0745325287775707]
[0.07608208420667736]
[0.07563536631160099]
[0.07717583070553628]
[0.07435244133679683]
[0.07532507425626082]
[0.07557542079124033]
[0.07568670097235147]
[0.07563556125393575]
[0.0738658405682451]
[0.0758234676924506]
[0.07398054851407278]
[0.07386323543954333]
[0.07323568653670208]
[0.07439951779310329]
[0.072601461181363]
[0.07459052945362188]
[0.074380509496608]
[0.07554634394243294]
[0.07490954359835165]
[0.07465837217008509]
[0.07434645153578148]
[0.07537542368214908]
[0.07590499425152539]
[0.0729661464906612]
[0.07406176398877887]
[0.07438235280665993]
[0.07332856542333524]
[0.07520438877393058]
[0.07385284275367893]
[0.07535325921378976]
[0.075190632913584]
[0.07313778171507145]
[0.07250440090203725]
[0.07304054379916518]
[0.07567014078439772]
[0.07270487535972488]
[0.07334539841876893]
[0.07496015608245335]
[0.07437551105733681]
[0.07238820658540061]
[0.07257155958975339]
