[8.254953982927745]
[6.03569142880342]
[4.251376000840295]
[3.8427851430031796]
[3.6499082029388457]
[3.4760002049237673]
[3.333114363174816]
[3.2022928684236946]
[3.0784853338675435]
[2.961802647040334]
[2.8421197036067642]
[2.718555580911894]
[2.61167572907363]
[2.502404578862974]
[2.3858564443824926]
[2.2855232655578455]
[2.1033125986931838]
[1.9262497296048284]
[1.6886169256690478]
[1.4487173037156393]
[1.2504999793585971]
[1.1043400440352085]
[0.9819768834145841]
[0.8741991526358798]
[0.8004616746620188]
[0.7275913756935228]
[0.6698976088741708]
[0.6122617572124965]
[0.5778698093456844]
[0.5269880807286386]
[0.4975979402412436]
[0.46344891081748646]
[0.44420137235227247]
[0.4252799474756158]
[0.40415752668437843]
[0.3973399323675576]
[0.37784959730899664]
[0.36446933331325804]
[0.34447155368331095]
[0.33883203278568114]
[0.33866178079623394]
[0.3217679148120082]
[0.3122911799539776]
[0.2959554470308224]
[0.3003288911158018]
[0.2875721120406179]
[0.2698120148044203]
[0.28204824392925276]
[0.2735524626403218]
[0.26065091613687813]
[0.264884332850434]
[0.25978394974506525]
[0.25302284661256896]
[0.2457392943253077]
[0.2430193810486844]
[0.249345579785141]
[0.2409817533889631]
[0.24248870033129677]
[0.22777951302069022]
[0.21459009941948828]
[0.22278387934548677]
[0.2126678349487455]
[0.2165991564398372]
[0.21745901719644706]
[0.21067175707209623]
[0.20056171751410334]
[0.19196014025907873]
[0.20990881937415456]
[0.20109260308432597]
[0.1983402221059552]
[0.19417293579584596]
[0.19001652422822263]
[0.18800401747237355]
[0.18695973911730426]
[0.18510566813239002]
[0.1771913536936812]
[0.18130435069184697]
[0.18796572570714165]
[0.17902482089904806]
[0.17969131923952708]
[0.17698665719090184]
[0.1804017432604042]
[0.1726139994535978]
[0.1670740663783221]
[0.1716337694370081]
[0.173629907142122]
[0.16509167015150558]
[0.17260766619247978]
[0.16541103550630623]
[0.1670230088138689]
[0.16344575619678217]
[0.1600157508472958]
[0.15597119627984568]
[0.16020342725901518]
[0.15531698496038576]
[0.15386734463661783]
[0.15947166442623875]
[0.151890333423076]
[0.16477517929323363]
[0.15215255747763398]
[0.15324101695033363]
[0.14847415593017346]
[0.14775317398035123]
[0.1495514696157294]
[0.14918160804784797]
[0.14719303714941537]
[0.14176073296683273]
[0.1461658773884693]
[0.1412715086459378]
[0.14065073909496414]
[0.14081635221786742]
[0.1483510233604487]
[0.13936550769307599]
[0.13991548688468658]
[0.13668105534725145]
[0.1380974060211878]
[0.1344560961655193]
[0.13860030689692948]
[0.13047149523386115]
[0.12858220358866032]
[0.13757974660474712]
[0.13185421094904967]
[0.12621307781080818]
[0.13294745153944326]
[0.13254036492872182]
[0.12986834619762844]
[0.12840838697930224]
[0.13577287436655303]
[0.1259068695910019]
[0.1262174908748804]
[0.12626682048664473]
[0.13162319831671915]
[0.12329258008284313]
[0.12910400314345521]
[0.1204239961349586]
[0.11873471450829674]
[0.12101341708604285]
[0.1305355577931562]
[0.12897823626172264]
[0.12494175153945869]
[0.12401454684831986]
[0.11935798963151516]
[0.11305267367346127]
[0.11993558783949525]
[0.1202768194124919]
[0.11984145768233681]
[0.11948361622914921]
[0.12050056229517477]
[0.12660376888546623]
[0.11756456396436792]
[0.11809103807210675]
[0.1164025384613073]
[0.11928484717292538]
[0.11561510355457671]
[0.12083945303380836]
[0.11822375426756167]
[0.12247098555204156]
[0.11403116161328691]
[0.12348239671116329]
[0.11550022537817145]
[0.10999721104463453]
[0.11397276748392621]
[0.11563275666002995]
[0.10975711455740834]
[0.11347003349584935]
[0.11077009174755319]
[0.11337831415924399]
[0.1074260748427888]
[0.11681655659629561]
[0.10982758464207987]
[0.11401106281779816]
[0.10683456187324163]
[0.11080293108231133]
[0.10927398545214478]
[0.10754477539810299]
[0.10785448591560709]
[0.1055744149578994]
[0.10519720997805118]
[0.1120510403246059]
[0.10155486349695463]
[0.10898268425855866]
[0.10587707257438081]
[0.10540096199510764]
[0.1110559188516004]
[0.10479929356826509]
[0.104013691577385]
[0.1034379102478732]
[0.10837071581225378]
[0.10848735793946654]
[0.10253703560613135]
[0.10843475188622059]
[0.10491540202256329]
[0.10891257793869155]
[0.10571483881382673]
[0.10618646913755578]
[0.10239728799673617]
[0.09877451187293573]
[0.10609859149566078]
[0.09793342412980585]
[0.10446755175071798]
[0.10079984210668758]
[0.10094044869418144]
[0.09897531959000506]
[0.10497201442240997]
[0.10624572735075005]
[0.1064297259887231]
[0.10591628243674764]
[0.10554343318625539]
[0.10071987613968457]
[0.10288678958591105]
[0.09244228069451534]
[0.09806900892063476]
[0.09804245321925092]
[0.10492559119920716]
[0.09481768856864688]
[0.10338094061856284]
[0.09899308357052354]
[0.09989998724682295]
[0.0988367118278752]
[0.09844534804307829]
[0.10029830863275616]
[0.0934279059465985]
[0.09359648062149856]
[0.09226485461002114]
[0.1026709480591611]
[0.09817395958125053]
[0.09772918833630144]
[0.09677987269565445]
[0.09277013913305703]
[0.09749507744726454]
[0.09682521228842092]
[0.09666283982385891]
[0.09668981207797205]
[0.0947315766188837]
[0.09087253586730966]
[0.09327609232463947]
[0.09392096394351276]
[0.09471199833963674]
[0.09907429264962482]
[0.10048767419357879]
