[8.159802861511388]
[5.508349102768076]
[4.028127462595321]
[3.824958359752084]
[3.7199400130422977]
[3.649401694769998]
[3.601622122737921]
[3.555506057711829]
[3.5158496610521435]
[3.4830728153302655]
[3.4524681118646456]
[3.407937890606992]
[3.364091592069094]
[3.3094406554733915]
[3.2562644494709185]
[3.1809006956392967]
[3.095499378705457]
[2.9795766742693117]
[2.8494974648944806]
[2.7234274235817937]
[2.620952617726596]
[2.5193667172730643]
[2.433639223547043]
[2.348711336326914]
[2.2613135519112273]
[2.192726557050784]
[2.1350276462303444]
[2.0521252984393645]
[1.9950258482829804]
[1.9418217164255915]
[1.881790422985501]
[1.819275348534413]
[1.7776482494577721]
[1.7070081938164585]
[1.6693801832427588]
[1.6092602829650828]
[1.5731196134405059]
[1.516146799613397]
[1.471846560435783]
[1.4268636196152351]
[1.3849003054630467]
[1.3426391238949047]
[1.3033135007796934]
[1.2719147578865893]
[1.2217764651237775]
[1.1956323508141817]
[1.153865739411161]
[1.1197608061671025]
[1.1006080855209275]
[1.0615646687375169]
[1.0325231451666055]
[1.0185822968410734]
[0.982192647688877]
[0.9756199358139884]
[0.9594858457126595]
[0.917297713603489]
[0.9073376501833155]
[0.8858776395302155]
[0.8714894082634452]
[0.8413653932112997]
[0.8251153298770316]
[0.8237505918200566]
[0.8057397965915833]
[0.7886554031102481]
[0.7634524322126915]
[0.7617398002542971]
[0.7374395508126809]
[0.7282030541770785]
[0.7183951960908491]
[0.6983225916680216]
[0.6952957324412623]
[0.6737060353465743]
[0.6622637767701748]
[0.6581763369958664]
[0.6355672318282634]
[0.6371863420288758]
[0.6196347335989005]
[0.6119491620622364]
[0.6011232070988222]
[0.5975126335955548]
[0.5784886755001676]
[0.5824948176995517]
[0.5690640453229598]
[0.5608755158553095]
[0.5526001253459624]
[0.530504028775462]
[0.5285534810913518]
[0.5102680621601634]
[0.5163643760727691]
[0.5032046206647303]
[0.5061364777930403]
[0.4895864886684619]
[0.485697439653039]
[0.47141198083286673]
[0.46559619616324177]
[0.45089260908069956]
[0.4498690560539161]
[0.44211583901114465]
[0.43923218629810573]
[0.4376382119638561]
[0.42378008909920706]
[0.4304279388183964]
[0.4248434156937423]
[0.4189262248936891]
[0.4110207906501706]
[0.4109582079693394]
[0.3949963177329614]
[0.38446068694044266]
[0.38102658165354664]
[0.39191160061874675]
[0.3754797922104225]
[0.37737088506217253]
[0.3740890534723245]
[0.3649767979636187]
[0.3565015078915902]
[0.34906321438619775]
[0.3498920500315355]
[0.3496265361638448]
[0.3468284762924353]
[0.3406941087245776]
[0.3294394200166453]
[0.3276000746807481]
[0.32194679787977587]
[0.3319922177514252]
[0.31246583113064674]
[0.31703519497077975]
[0.3111229120396342]
[0.31250497906851044]
[0.3058083055385329]
[0.3113639815832011]
[0.2963374159838441]
[0.29862635655980907]
[0.28892473284494824]
[0.2891456068527853]
[0.2935549680955406]
[0.2887328013244726]
[0.28834290590605094]
[0.2813148789061009]
[0.28256030258018316]
[0.2777550829795313]
[0.2676222460462749]
[0.2656928322782336]
[0.2709869049537308]
[0.2555303387856494]
[0.26238929183431503]
[0.25955339792949883]
[0.2657450604855955]
[0.25304769036639935]
[0.25182607407869334]
[0.2534606603101263]
[0.2479474097626905]
[0.24003236143101475]
[0.2432264155696109]
[0.23760332512052248]
[0.2364069723962976]
[0.24298431890265731]
[0.24211593279406157]
[0.23841731290167206]
[0.2294276713060117]
[0.23475958996770982]
[0.22845610080937342]
[0.21985679714349537]
[0.22422300316663057]
[0.22415147579711503]
[0.21490516518651956]
[0.226626192032542]
[0.22983093162521892]
[0.21878324136485208]
[0.2129875423770387]
[0.2128560838692117]
[0.21464583168737028]
[0.21037993746905584]
[0.21847243148049908]
[0.20627821414863245]
[0.20954855669546357]
[0.21085527120269507]
[0.2104702782357276]
[0.20461671252485025]
[0.20106544257370362]
[0.19798115468518984]
[0.20211101112112193]
[0.19281061435308933]
[0.1964091480818959]
[0.1944634853285076]
[0.19786717189346065]
[0.1952700203059755]
[0.1907762058216312]
[0.1949237918845472]
[0.19043331078943973]
[0.1902040105561171]
[0.1822537519153606]
[0.18509945747340423]
[0.18241441105650796]
[0.18834226669422163]
[0.18481842711597438]
[0.18217625799473433]
[0.17912093176964755]
[0.17789730822942762]
[0.17872300585782]
[0.17805322492747963]
[0.17451215870700867]
[0.17066825849109898]
[0.17152264847958493]
[0.175144113300166]
[0.16849301141054668]
[0.16718281694186407]
[0.1670733082143036]
[0.16979091015158843]
[0.17380575910165963]
[0.16319092311814284]
[0.17099495636921483]
[0.16520563995854468]
[0.16256885322784387]
[0.16009997879161225]
[0.16785777388356268]
[0.1643446978610175]
[0.16288215647367343]
[0.15960705503790593]
[0.1584866455742336]
[0.16033974380377675]
[0.15675144226877455]
[0.15398101652670992]
[0.1563803390291495]
[0.15200427470249286]
[0.15108090109688468]
[0.16008430480876057]
[0.15686725046286215]
[0.15088358819626782]
[0.14665962833573065]
[0.151185855637859]
[0.15005858382994108]
[0.14949717129619466]
[0.14547157923485904]
[0.15043618294028055]
[0.14822966975776666]
[0.14846516222643355]
[0.14646245572996128]
[0.14379387680236994]
[0.14007781086088994]
[0.14454338282726187]
[0.14583769762184232]
[0.13715725989354552]
[0.13800984015159207]
[0.13463433788848408]
[0.1404688728591302]
[0.13921427971503886]
[0.13760477625032527]
[0.13998680103871067]
[0.13982575373272033]
[0.13102253440829356]
[0.13439704435300387]
[0.1373090679260684]
[0.13716680149101537]
[0.12820147729628242]
[0.13029053583029848]
[0.1282320616160203]
[0.12859525651291723]
[0.13186865379409515]
[0.12655731668318676]
[0.12745647618494718]
[0.13061358565541992]
[0.12680140207152354]
[0.1267574149933191]
[0.125477711586782]
[0.12485319558723978]
[0.12322996319896228]
[0.11988831989125598]
[0.12435335613167044]
[0.12331364707616274]
[0.11870676889687323]
[0.11510930414773089]
[0.11713784589951363]
[0.12532208979598058]
[0.12308044599684675]
[0.11843757412750179]
[0.1226765656156897]
[0.11958422160835505]
[0.11442775917411487]
[0.12186483002259559]
[0.11774547644891364]
[0.1131100349395144]
[0.11906174429143096]
[0.11512281854443569]
[0.12048231741891774]
[0.11324801851211079]
[0.11319698814241426]
[0.115820165284013]
[0.1164175234171661]
[0.11289483205958953]
[0.11663886642169212]
[0.11351293996406275]
[0.11396454179021158]
[0.11371360426909911]
[0.1107075865019106]
[0.11497229806002851]
[0.10913182300210209]
[0.1068814546735748]
[0.11131936602527351]
[0.10740056164648994]
[0.10576065023024694]
[0.10923710837320318]
[0.10782494792756817]
[0.10564323435308795]
[0.11372001913598496]
[0.11014175940999266]
[0.10910133065008673]
[0.10819735152801635]
[0.10616808209613998]
[0.10782672016578962]
[0.1093113809512896]
[0.10437142794917291]
[0.10841958456425838]
[0.10295961652083]
[0.10628816064094636]
[0.10103805000942898]
[0.10295276733325721]
[0.10230419530342123]
[0.09924278613796474]
[0.10060162308322794]
[0.09969814883772699]
[0.10091239631377849]
[0.10432166266235827]
[0.09505570100235664]
[0.10051104113238621]
[0.10206215660536995]
[0.0972442893898246]
[0.10004189391566817]
[0.10238535598015519]
[0.09841492709610984]
[0.09982934953281142]
[0.0971687205032562]
[0.09372951476987927]
[0.09494130501155983]
[0.10086629922342627]
[0.0960524121593742]
[0.09359968533546582]
[0.09982900958760416]
[0.09690122168705168]
[0.09924052683412711]
[0.09764331860260418]
[0.09769744091939361]
[0.09922333830755843]
[0.09560303407964994]
[0.09781364242705484]
[0.09521704178599177]
[0.09556116573096389]
[0.09564717435140062]
[0.09592016361699372]
[0.0917097641370226]
[0.09814618557626582]
[0.0925189319968926]
[0.09121100438853538]
[0.09479063588039771]
[0.09227519270214282]
[0.09368068446674606]
[0.09460536378613742]
[0.0904237560937299]
[0.08762525127095583]
[0.09433893745374368]
[0.09084718214192379]
[0.09130321863746536]
[0.09405284886082474]
[0.09266450896898769]
[0.08919794475145947]
[0.09493565810095464]
[0.08989494455903431]
[0.09217164553819616]
[0.08855632527076944]
[0.08718261717916662]
[0.08985688947417668]
[0.08919656819157305]
[0.08726315067816855]
[0.08772801897728204]
[0.08796203177171444]
[0.08867361701945016]
[0.08770623002229193]
[0.08905434504240348]
[0.09036347182129166]
[0.08928105519550628]
[0.08677845430575658]
[0.0887161465984331]
[0.08823565415918992]
[0.08263383176188893]
[0.08370844867348805]
[0.08989858012178872]
[0.08721531632656648]
[0.08349340406059765]
[0.08338716581961944]
[0.08237073257361202]
[0.0879275224316718]
[0.0863068143509991]
[0.08872945599181807]
[0.08474926851119312]
[0.08276851873878684]
[0.08246029928936786]
[0.08404766404012406]
[0.08385664675792256]
[0.08596076383487418]
[0.08290527738645027]
[0.08402261804544517]
