[8.297396549438272]
[6.0478640003558555]
[4.292974909896667]
[3.8857686334747843]
[3.679237711458627]
[3.5089266948139524]
[3.3802938891138936]
[3.2616207060424753]
[3.172638911881338]
[3.1036913595209445]
[3.034754557452091]
[2.966397195202941]
[2.9281886565033237]
[2.8817596511577905]
[2.864602133577014]
[2.8356889565308574]
[2.769024868732834]
[2.74262140149005]
[2.7090985603821363]
[2.6951667837974718]
[2.6717512062325883]
[2.652096776421455]
[2.6247760892412972]
[2.589784709603515]
[2.597485613221521]
[2.546381732808538]
[2.5508558373931627]
[2.5101550774619747]
[2.5216468013444495]
[2.501898887955683]
[2.472088511816505]
[2.4678801954118996]
[2.462032897415252]
[2.451404044200755]
[2.4293441377674925]
[2.430608128387593]
[2.4162492418326087]
[2.415649513563548]
[2.4109926877313406]
[2.390927581924074]
[2.391911013806167]
[2.3691733099872434]
[2.3488031674952383]
[2.3571841042733683]
[2.338390224052357]
[2.34980516731225]
[2.327491852010179]
[2.3248041477304007]
[2.3383613206480534]
[2.300984569847958]
[2.3200961611871445]
[2.3026333173028455]
[2.292379627042941]
[2.2936022585872307]
[2.2982738749274123]
[2.2946803627910413]
[2.2841869486658215]
[2.2859854049544928]
[2.2663242822665195]
[2.2591857447185695]
[2.2616191643938794]
[2.2454122795398854]
[2.2570697011392302]
[2.2596100334854845]
[2.240760886295653]
[2.237121663234475]
[2.228865675979781]
[2.2399654149406176]
[2.232810264556525]
[2.249518329556844]
[2.2139566114212412]
[2.2210818794757814]
[2.220177023027213]
[2.2140946254347673]
[2.216791446170903]
[2.1991574767972724]
[2.210023386082205]
[2.191752392969779]
[2.1938820747733314]
[2.1755730019502826]
[2.203934268783624]
[2.188241787478014]
[2.184708666017597]
[2.1675400314782682]
[2.1623041668898995]
[2.1791980446979324]
[2.1715047358337882]
[2.170767459280221]
[2.163125432202911]
[2.1660344258716244]
[2.160354562616621]
[2.161396989363475]
[2.157630956614509]
[2.1590359145342153]
[2.1453873720496732]
[2.152312747420838]
[2.143239122999134]
[2.145764730878752]
[2.1579393682867876]
[2.1459648725930056]
[2.1499665697287957]
[2.119104173650499]
[2.142218064752684]
[2.1259510141760423]
[2.1296743271224647]
[2.139868657226459]
[2.1241688074961544]
[2.1190994441276]
[2.13460940024585]
[2.1215314666158553]
[2.1205239606022923]
[2.1171410618598214]
[2.116094863877399]
[2.1067700374682614]
[2.1005657667780384]
[2.1022929541441235]
[2.1098808899260137]
[2.1061622363335695]
[2.1063853102144896]
[2.1120838521612377]
[2.109928910921788]
[2.104540098722354]
[2.089647770139535]
[2.1132657637172483]
[2.1044871033003867]
[2.102585040535251]
[2.0850909824877513]
[2.0819283219762523]
[2.0979325748072077]
[2.096318179167004]
[2.0676835472859767]
[2.0923747366826446]
[2.0678397336743233]
[2.0814204709668664]
[2.076995959987375]
[2.0827103277776557]
[2.0995854519095083]
[2.062173819588166]
[2.075541125035127]
[2.070279777433414]
[2.0761818209474843]
[2.071321723316777]
[2.0667838578841713]
[2.062630784370814]
[2.0642793756654547]
[2.058429147772367]
[2.0687614877623037]
[2.0651490623498523]
[2.0573589547704962]
[2.074118066285383]
[2.063858529303279]
[2.0566474026939146]
[2.065773186013972]
[2.0614644950308776]
[2.041505934539612]
[2.0634147638451195]
[2.0604490716240007]
[2.0577714868033987]
[2.0477682424951946]
[2.052940860119744]
[2.051074954987125]
[2.0460232108971868]
[2.044622106764721]
[2.044646604661441]
[2.044422136345187]
[2.041950417509391]
[2.039614152209414]
[2.043246971324605]
[2.0351857427271933]
[2.040234698634396]
[2.0449884635196582]
[2.030753696843802]
[2.0322163583825255]
[2.0439165094154426]
[2.0231433427794054]
[2.028320108625494]
[2.016577224031421]
[2.0208040760382064]
[2.025799507504808]
[2.0287342999470113]
[2.035452377061854]
[2.030164791098995]
[2.021485678368036]
[2.026955091956624]
[2.0326366963639853]
[2.010002610716344]
[2.013298257844519]
[2.02424632530556]
[2.0337908684942723]
[2.0082816711360003]
[2.0272044674883056]
[2.0067243696082984]
[2.0120877641477963]
[2.0060496369534744]
[2.025296467882063]
[2.0082906610131253]
[2.004699857947471]
[1.99304133497123]
[2.0009042799549484]
[2.0163132141520124]
[2.003692528044143]
[2.018416581234121]
[1.99919830424109]
[2.0113423142907294]
[1.989663683075471]
[1.9968426489291244]
[2.0031903758518763]
[2.0000758388378115]
[2.0029028029734386]
[2.012080929557251]
[1.9972220626069153]
[2.006093210477897]
[2.002909652698457]
[2.000775808226823]
[2.0081863232664308]
[2.000687506830425]
[2.005632615485454]
[1.993202107104979]
[1.9889638498967188]
[1.9872241064212597]
[1.9911463585792406]
[1.9889869932580801]
[2.008641209122796]
[1.9846088818219303]
[2.0063873503418757]
[2.0022064404045805]
[1.9901223098984573]
[1.9902223301926847]
[1.9818081285302256]
[1.9984947472939816]
[1.9865911689902482]
[1.9957784443631563]
[1.97870082992197]
[1.9885117425920615]
[1.9873462622585143]
[1.9642261859722734]
[1.9697989047237203]
[1.9847663855973825]
[1.981875091007235]
[1.9979483976242347]
[1.9844440825424285]
